<?xml version="1.0" encoding="utf-8"?>
<!-- Generator: Adobe Illustrator 25.2.1, SVG Export Plug-In . SVG Version: 6.00 Build 0)  -->
<svg version="1.1" id="Layer_1" xmlns="http://www.w3.org/2000/svg" xmlns:xlink="http://www.w3.org/1999/xlink" x="0px" y="0px"
	 viewBox="0 0 170.2 98.5" style="enable-background:new 0 0 170.2 98.5;" xml:space="preserve">
<style type="text/css">
	.st0{fill:#970000;}
	.st1{display:none;fill:#FFFFFF;}
	.st2{fill:#FFFFFF;}
</style>
<g id="Layer_2_1_">
	<g id="design">
		<path class="st0" d="M160.5,0h-45c-5.4,0-9.7,4.4-9.7,9.7v28.7c0,5.4-4.4,9.7-9.8,9.7H80.2c-5.4,0-9.7-4.4-9.7-9.7V21.1
			c0-5.4-4.4-9.7-9.7-9.7H35.3c-5.4,0-9.7,4.4-9.7,9.7v29.2c0,5.4-4.4,9.7-9.7,9.8H9.7C4.4,60,0,64.4,0,69.7v28.8h170.2V9.7
			C170.2,4.4,165.8,0,160.5,0z"/>
		<path class="st1" d="M57.5,77.4c-0.6-0.1-1.3-0.3-1.9-0.6v-5.3h4.1l0.1,1.6h-2.2v2.5c0.7,0.2,1.4,0.3,2.1,0.3
			c0.6,0,1.2-0.1,1.8-0.3c0.5-0.2,0.8-0.6,1-1.1c0.2-0.7,0.3-1.4,0.3-2.1c0-0.8-0.1-1.5-0.3-2.2c-0.2-0.5-0.6-0.9-1.2-1.2
			c-0.7-0.3-1.4-0.4-2.2-0.3c-1.2,0-2.3,0.1-3.4,0.5v-1.6c0.6-0.2,1.2-0.3,1.8-0.4c0.7-0.1,1.4-0.2,2.1-0.2c1.4-0.1,2.8,0.4,3.9,1.3
			c0.9,1.1,1.3,2.6,1.2,4c0.1,1.4-0.3,2.9-1.2,4c-1,1-2.4,1.4-3.8,1.3C58.9,77.7,58.2,77.6,57.5,77.4z"/>
		<path class="st1" d="M66.4,68.7h1.8v0.9h2.8l-0.1,1.5h-4.5V68.7z M66.4,73.9h1.8v1h2.8l-0.1,1.5h-4.5V73.9z"/>
		<path class="st1" d="M74,76.9c-0.3-0.6-0.5-1.2-0.4-1.8v-6.4c0-0.6-0.1-1.3-0.5-1.8c-0.4-0.5-0.9-0.8-1.5-1v-1.6h5.6v1.6h-3
			c0.5,0.2,0.8,0.6,1.1,1.1c0.2,0.6,0.3,1.2,0.3,1.9V75c0,0.2,0,0.5,0.2,0.7c0.2,0.1,0.4,0.2,0.7,0.2h0.9v1.6h-1.8
			C75,77.6,74.4,77.3,74,76.9z"/>
		<path class="st1" d="M80.5,77.4c-0.6-0.1-1.3-0.3-1.9-0.6v-5.3h4.1l0.1,1.6h-2.2v2.5c0.7,0.2,1.4,0.3,2.1,0.3
			c0.6,0,1.2-0.1,1.8-0.3c0.5-0.2,0.8-0.6,1-1.1c0.2-0.7,0.3-1.4,0.3-2.1c0-0.8-0.1-1.5-0.3-2.2c-0.2-0.5-0.6-0.9-1.2-1.2
			c-0.7-0.3-1.4-0.4-2.2-0.3c-1.2,0-2.3,0.1-3.4,0.5v-1.6c0.6-0.2,1.2-0.3,1.8-0.4c0.7-0.1,1.4-0.2,2.1-0.2c1.4-0.1,2.8,0.4,3.9,1.3
			c0.9,1.1,1.3,2.6,1.2,4c0.1,1.4-0.3,2.9-1.2,4c-1,1-2.4,1.4-3.8,1.3C81.9,77.7,81.2,77.6,80.5,77.4z"/>
		<path class="st1" d="M90.9,76.9c-0.3-0.5-0.5-1.2-0.4-1.8v-6.4c0.2-1.3-0.7-2.5-2-2.8v-1.6h5.7v1.6h-3c0.5,0.2,0.8,0.6,1.1,1.1
			c0.2,0.6,0.3,1.2,0.3,1.9V75c0,0.2,0,0.5,0.2,0.7c0.2,0.1,0.4,0.2,0.7,0.2h0.9v1.6h-1.8C91.9,77.6,91.3,77.3,90.9,76.9z"/>
		<path class="st1" d="M99.3,77.3c-0.6-0.2-1.1-0.6-1.6-1l-0.1,1.1h-1.9V67.2h2.1v7.6c0.4,0.4,0.8,0.7,1.3,0.9
			c0.5,0.2,1,0.3,1.6,0.3c1,0.2,2-0.5,2.1-1.5c0-0.2,0-0.4,0-0.6v-6.6h2v6.7c0.1,1-0.3,2-0.9,2.8c-0.7,0.7-1.6,1-2.6,1
			C100.6,77.7,99.9,77.6,99.3,77.3z"/>
		<path class="st1" d="M108.6,77.5c-0.5-0.1-1-0.2-1.5-0.4v-1.7c0.5,0.2,1,0.3,1.5,0.4c0.5,0.1,1,0.1,1.6,0.2c0.7,0,1.4,0,2-0.2
			c0.4-0.2,0.6-0.6,0.6-1c0-0.3-0.1-0.5-0.2-0.7c-0.2-0.2-0.4-0.4-0.6-0.4c-0.3-0.1-0.7-0.3-1.2-0.4l-0.7-0.2
			c-0.8-0.3-1.6-0.7-2.3-1.2c-0.5-0.4-0.8-1.1-0.8-1.8c0-0.8,0.3-1.6,1-2.2c0.9-0.6,2-0.8,3.1-0.8c0.6,0,1.1,0,1.7,0.1
			c0.5,0.1,1,0.2,1.4,0.3v1.7c-0.4-0.2-0.9-0.3-1.4-0.4c-0.5-0.1-1-0.1-1.4-0.1c-0.6,0-1.2,0.1-1.8,0.3c-0.5,0.2-0.8,0.8-0.5,1.3
			c0,0.1,0.1,0.2,0.2,0.3c0.2,0.2,0.4,0.3,0.7,0.4c0.3,0.1,0.7,0.3,1.3,0.5l0.6,0.2c0.9,0.2,1.7,0.7,2.4,1.2
			c0.5,0.5,0.8,1.2,0.7,1.9c0.1,0.9-0.4,1.7-1.1,2.2c-0.9,0.5-2,0.8-3.1,0.7C109.9,77.7,109.2,77.6,108.6,77.5z"/>
		<path class="st1" d="M106.5,64.2h7.8v1.4h-7.9L106.5,64.2z"/>
	</g>
</g>
<g>
	<path class="st2" d="M57.9,77.8c-0.7-0.1-1.3-0.3-1.9-0.6v-5.3h4.1l0.1,1.6H58V76c0.6,0.2,1.3,0.3,2.1,0.3c0.8,0,1.4-0.1,1.8-0.4
		s0.8-0.6,1-1.1c0.2-0.5,0.3-1.2,0.3-2.1c0-1-0.1-1.7-0.3-2.2c-0.2-0.5-0.6-0.9-1.1-1.1c-0.5-0.2-1.2-0.3-2.2-0.3
		c-1.2,0-2.4,0.2-3.4,0.5v-1.6c0.5-0.2,1.1-0.3,1.8-0.4c0.7-0.1,1.4-0.2,2.1-0.2c1.8,0,3,0.4,3.9,1.3c0.8,0.9,1.2,2.2,1.2,4
		c0,1.8-0.4,3.1-1.2,4c-0.8,0.9-2.1,1.3-3.8,1.3C59.3,78,58.6,77.9,57.9,77.8z"/>
	<path class="st2" d="M71.1,71.3c0-0.6-0.1-1-0.2-1.3c-0.1-0.3-0.3-0.6-0.7-0.7c-0.3-0.2-0.8-0.3-1.4-0.3c-0.4,0-0.8,0-1.3,0.1
		c-0.5,0.1-0.9,0.2-1.3,0.4v-1.6c0.4-0.2,0.9-0.3,1.4-0.4c0.5-0.1,1.1-0.2,1.6-0.2c1.4,0,2.4,0.3,3,0.9c0.6,0.6,0.9,1.5,0.9,2.8v6.7
		h-2.1V71.3z"/>
	<path class="st2" d="M76.7,77.2c-0.3-0.4-0.4-1-0.4-1.8V69c0-0.8-0.2-1.4-0.5-1.8s-0.8-0.8-1.5-1v-1.6h5.6v1.6h-3
		c0.5,0.3,0.9,0.7,1.1,1.1c0.2,0.4,0.3,1.1,0.3,1.9v6.1c0,0.3,0.1,0.6,0.2,0.7c0.1,0.1,0.3,0.2,0.7,0.2H80v1.6h-1.8
		C77.5,77.8,77,77.6,76.7,77.2z"/>
	<path class="st2" d="M83.1,77.8c-0.7-0.1-1.3-0.3-1.9-0.6v-5.3h4.1l0.1,1.6h-2.2V76c0.6,0.2,1.3,0.3,2.1,0.3c0.8,0,1.4-0.1,1.8-0.4
		s0.8-0.6,1-1.1c0.2-0.5,0.3-1.2,0.3-2.1c0-1-0.1-1.7-0.3-2.2c-0.2-0.5-0.6-0.9-1.1-1.1c-0.5-0.2-1.2-0.3-2.2-0.3
		c-1.2,0-2.4,0.2-3.4,0.5v-1.6c0.5-0.2,1.1-0.3,1.8-0.4c0.7-0.1,1.4-0.2,2.1-0.2c1.8,0,3,0.4,3.9,1.3c0.8,0.9,1.2,2.2,1.2,4
		c0,1.8-0.4,3.1-1.2,4c-0.8,0.9-2.1,1.3-3.8,1.3C84.5,78,83.8,77.9,83.1,77.8z"/>
	<path class="st2" d="M93.5,77.2c-0.3-0.4-0.4-1-0.4-1.8V69c0-0.8-0.2-1.4-0.5-1.8s-0.8-0.8-1.5-1v-1.6h5.6v1.6h-3
		c0.5,0.3,0.9,0.7,1.1,1.1c0.2,0.4,0.3,1.1,0.3,1.9v6.1c0,0.3,0.1,0.6,0.2,0.7c0.1,0.1,0.3,0.2,0.7,0.2h0.9v1.6h-1.8
		C94.3,77.8,93.8,77.6,93.5,77.2z"/>
	<path class="st2" d="M102,77.7c-0.6-0.2-1.1-0.5-1.6-1l-0.1,1.1h-1.9V67.5h2.1v7.6c0.4,0.4,0.8,0.7,1.3,0.9c0.5,0.2,1,0.3,1.6,0.3
		c0.7,0,1.3-0.2,1.6-0.5c0.3-0.3,0.5-0.9,0.5-1.7v-6.6h2.1v6.7c0,1.2-0.3,2.1-0.9,2.7s-1.5,1-2.6,1C103.2,78,102.5,77.9,102,77.7z"
		/>
	<path class="st2" d="M111.2,77.9c-0.6-0.1-1.1-0.2-1.5-0.4v-1.7c0.5,0.2,1,0.3,1.5,0.4c0.6,0.1,1.1,0.2,1.6,0.2
		c0.9,0,1.6-0.1,2-0.2c0.4-0.2,0.6-0.5,0.6-1c0-0.3-0.1-0.5-0.2-0.7c-0.2-0.2-0.4-0.3-0.6-0.4c-0.3-0.1-0.7-0.3-1.2-0.4l-0.7-0.2
		c-1-0.4-1.8-0.7-2.3-1.2c-0.5-0.4-0.8-1-0.8-1.8c0-0.9,0.3-1.6,1-2.2c0.7-0.5,1.7-0.8,3.1-0.8c0.6,0,1.1,0,1.7,0.1s1.1,0.2,1.4,0.3
		v1.7c-0.4-0.2-0.9-0.3-1.4-0.4c-0.5-0.1-1-0.1-1.5-0.1c-0.8,0-1.4,0.1-1.8,0.3c-0.4,0.2-0.6,0.5-0.6,0.9c0,0.3,0.1,0.5,0.3,0.7
		c0.2,0.2,0.4,0.3,0.7,0.4c0.3,0.1,0.7,0.3,1.3,0.5l0.6,0.2c1.1,0.4,1.9,0.8,2.4,1.2c0.5,0.4,0.7,1.1,0.7,1.9c0,1-0.4,1.7-1.1,2.2
		c-0.7,0.5-1.8,0.7-3.1,0.7C112.5,78,111.9,77.9,111.2,77.9z"/>
	<path class="st2" d="M109.1,64.5h7.8V66h-7.9L109.1,64.5z"/>
</g>
</svg>
