<?xml version="1.0" encoding="utf-8"?>
<!-- Generator: Adobe Illustrator 25.2.1, SVG Export Plug-In . SVG Version: 6.00 Build 0)  -->
<svg version="1.1" id="Layer_1" xmlns="http://www.w3.org/2000/svg" xmlns:xlink="http://www.w3.org/1999/xlink" x="0px" y="0px"
	 viewBox="0 0 119.9 91.2" style="enable-background:new 0 0 119.9 91.2;" xml:space="preserve">
<style type="text/css">
	.st0{fill:#970000;}
	.st1{enable-background:new    ;}
	.st2{display:none;fill:#FFFFFF;}
	.st3{fill:#FFFFFF;}
</style>
<g id="Layer_2_1_">
	<g id="Layer_1-2">
		<rect class="st0" width="119.9" height="91.2"/>
		<g class="st1">
			<path class="st2" d="M33.6,39.8h2l1.5,7.3l1.9-5.9v-1.5h1.5l2.1,7.3l2.1-10.4h2l-3,13.4h-1.9l-1.9-6.5l-2,6.5H36L33.6,39.8z"/>
			<path class="st2" d="M43.7,52.5h-1.2l0.1-1.3h2.9v3.7h-1.8V52.5z"/>
			<path class="st2" d="M47.9,43.6c0-1.3,0.4-2.2,1.1-2.9c0.8-0.7,1.9-1,3.5-1s2.7,0.3,3.5,1s1.1,1.7,1.1,2.9V50H55v-6.7
				c0-1.4-0.8-2.1-2.5-2.1c-0.9,0-1.5,0.2-1.9,0.5S50,42.6,50,43.3v2.1c0.6-0.5,1.2-0.7,2-0.7h1.2l0.1,1.7h-1.4
				c-0.8,0-1.4,0.2-1.9,0.6v3h-2.1C47.9,50,47.9,43.6,47.9,43.6z"/>
			<path class="st2" d="M55.4,52.5h-1.2l0.1-1.3h2.9v3.7h-1.8V52.5z"/>
			<path class="st2" d="M60.6,49.2c-0.7-0.7-1.1-1.6-1.1-2.8v-1c0-0.4,0.1-0.8,0.3-1.1s0.4-0.8,0.8-1.2c0.2-0.3,0.4-0.5,0.5-0.7
				s0.2-0.3,0.2-0.5s0-0.3-0.1-0.4c-0.1-0.1-0.2-0.1-0.5-0.1h-1.3l0.2-1.6H62c1,0,1.4,0.5,1.4,1.4c0,0.4-0.1,0.7-0.2,1
				s-0.4,0.7-0.7,1.1c-0.3,0.4-0.5,0.8-0.6,1.1s-0.2,0.6-0.2,1v1.2c0,1.3,0.8,2,2.3,2c1.6,0,2.4-0.7,2.4-2.1v-1.3
				c0-0.6-0.1-1-0.3-1.2c-0.2-0.2-0.5-0.4-1.1-0.4h-0.5l0.1-1.5H65c0.5,0,0.9-0.1,1.1-0.4s0.3-0.7,0.3-1.2v-1h2.1v0.9
				c0,0.6-0.1,1.2-0.3,1.5s-0.6,0.7-1.1,0.9c0.5,0.2,0.9,0.5,1.1,0.9s0.3,0.9,0.3,1.5v1.1c0,1.2-0.4,2.2-1.2,2.8
				c-0.8,0.7-1.9,1-3.2,1C62.4,50.2,61.3,49.9,60.6,49.2z"/>
			<path class="st2" d="M60.4,36.8h7.8v1.4h-7.9L60.4,36.8z"/>
			<path class="st2" d="M74.3,49.9c-0.6-0.2-1.1-0.5-1.6-1L72.5,50h-1.9V39.8h2.1v7.6c0.4,0.4,0.8,0.7,1.3,0.9s1,0.3,1.6,0.3
				c0.7,0,1.3-0.2,1.6-0.5c0.3-0.3,0.5-0.9,0.5-1.7v-6.6h2.1v6.7c0,1.2-0.3,2.1-0.9,2.7s-1.5,1-2.6,1C75.5,50.2,74.8,50.1,74.3,49.9
				z"/>
			<path class="st2" d="M81.8,41.3h1.8v0.9h2.8l-0.1,1.5h-4.5C81.8,43.7,81.8,41.3,81.8,41.3z M81.8,46.5h1.8v1h2.8L86.3,49h-4.5
				C81.8,49,81.8,46.5,81.8,46.5z"/>
		</g>
	</g>
</g>
<g>
	<path class="st3" d="M33.7,39.4h2l1.5,7.3l1.9-5.9v-1.5h1.5l2.1,7.3l2.1-10.4h2l-2.9,13.3h-1.9L40,43.2l-2.1,6.5H36L33.7,39.4z"/>
	<path class="st3" d="M42,52.1h-1.2l0.1-1.3h2.9v3.7H42V52.1z"/>
	<path class="st3" d="M48.1,46c0-1.3,0.5-2.1,1.5-2.4l-2.1-0.5V41c0.6-0.5,1.3-0.9,2.1-1.3c0.8-0.3,1.8-0.5,2.8-0.5
		c1.6,0,2.7,0.3,3.5,1s1.2,1.7,1.2,3.1v6.4h-2.1v-6.4c0-0.9-0.2-1.5-0.6-1.8s-1.1-0.5-2.1-0.5c-0.6,0-1.2,0.1-1.8,0.3
		c-0.6,0.2-1,0.4-1.3,0.7v0.3l2.2,0.6v1.4c-0.5,0.1-0.8,0.3-1,0.6c-0.2,0.3-0.3,0.7-0.3,1.3v3.7h-2.1V46z"/>
	<path class="st3" d="M55.4,52.1h-1.2l0.1-1.3h2.9v3.7h-1.8V52.1z"/>
	<path class="st3" d="M60.6,48.9c-0.7-0.7-1.1-1.6-1.1-2.8v-1c0-0.4,0.1-0.8,0.3-1.1c0.2-0.3,0.4-0.8,0.8-1.2
		c0.2-0.3,0.4-0.5,0.5-0.7c0.1-0.2,0.2-0.3,0.2-0.5c0-0.2,0-0.3-0.1-0.4C60.9,41,60.7,41,60.5,41h-1.3l0.2-1.6h2.4
		c1,0,1.4,0.5,1.4,1.4c0,0.4-0.1,0.7-0.2,1c-0.1,0.3-0.4,0.7-0.7,1.1c-0.3,0.4-0.5,0.8-0.6,1.1c-0.1,0.3-0.2,0.6-0.2,1v1.2
		c0,1.3,0.8,2,2.3,2c1.6,0,2.4-0.7,2.4-2.1v-1.3c0-0.6-0.1-1-0.3-1.2c-0.2-0.2-0.5-0.4-1.1-0.4h-0.5l0.1-1.5h0.4
		c0.5,0,0.9-0.1,1.1-0.4s0.3-0.7,0.3-1.2v-1h2.1v0.9c0,0.6-0.1,1.2-0.3,1.5c-0.2,0.4-0.6,0.7-1.1,0.9c0.5,0.2,0.9,0.5,1.1,0.9
		c0.2,0.4,0.3,0.9,0.3,1.5V46c0,1.2-0.4,2.2-1.2,2.8c-0.8,0.7-1.9,1-3.2,1C62.4,49.9,61.3,49.6,60.6,48.9z"/>
	<path class="st3" d="M60.4,36.4h7.8v1.4h-7.9L60.4,36.4z"/>
	<path class="st3" d="M74.2,49.6c-0.6-0.2-1.1-0.5-1.6-1l-0.1,1.1h-1.9V39.4h2.1V47c0.4,0.4,0.8,0.7,1.3,0.9c0.5,0.2,1,0.3,1.6,0.3
		c0.7,0,1.3-0.2,1.6-0.5c0.3-0.3,0.5-0.9,0.5-1.7v-6.6h2.1v6.7c0,1.2-0.3,2.1-0.9,2.7s-1.5,1-2.6,1C75.5,49.9,74.8,49.8,74.2,49.6z"
		/>
	<path class="st3" d="M81.7,40.9h1.8v0.9h2.8l-0.1,1.5h-4.5V40.9z M81.7,46.1h1.8v1h2.8l-0.1,1.5h-4.5V46.1z"/>
</g>
</svg>
