<?xml version="1.0" encoding="utf-8"?>
<!-- Generator: Adobe Illustrator 25.2.1, SVG Export Plug-In . SVG Version: 6.00 Build 0)  -->
<svg version="1.1" id="Layer_1" xmlns="http://www.w3.org/2000/svg" xmlns:xlink="http://www.w3.org/1999/xlink" x="0px" y="0px"
	 viewBox="0 0 79.9 84.8" style="enable-background:new 0 0 79.9 84.8;" xml:space="preserve">
<style type="text/css">
	.st0{fill:#970000;}
	.st1{display:none;enable-background:new    ;}
	.st2{display:inline;fill:#FFFFFF;}
	.st3{fill:#FFFFFF;}
</style>
<g id="Layer_2_1_">
	<g id="Layer_1-2">
		<rect class="st0" width="79.9" height="84.8"/>
		<g class="st1">
			<path class="st2" d="M26.2,47.1c-0.9-0.8-1.3-1.9-1.3-3.3v-1.2c0-0.5,0.1-0.9,0.3-1.3s0.5-0.9,0.9-1.4c0.3-0.4,0.5-0.6,0.6-0.8
				s0.2-0.4,0.2-0.6c0-0.2-0.1-0.4-0.2-0.5s-0.3-0.1-0.6-0.1h-1.5l0.2-1.8h2.8c1.1,0,1.7,0.5,1.7,1.6c0,0.5-0.1,0.9-0.3,1.2
				s-0.4,0.8-0.8,1.3c-0.3,0.5-0.6,0.9-0.7,1.2c-0.2,0.4-0.3,0.7-0.3,1.2V44c0,1.6,0.9,2.3,2.7,2.3c1.8,0,2.7-0.8,2.7-2.4v-1.5
				c0-0.7-0.1-1.2-0.3-1.4c-0.2-0.3-0.6-0.4-1.2-0.4h-0.6l0.1-1.7H31c0.6,0,1-0.1,1.3-0.4c0.2-0.3,0.4-0.8,0.4-1.4V36h2.4v1.1
				c0,0.8-0.1,1.3-0.3,1.8c-0.2,0.4-0.6,0.8-1.2,1c0.6,0.3,1.1,0.6,1.3,1.1c0.2,0.4,0.3,1,0.3,1.8V44c0,1.4-0.5,2.5-1.4,3.3
				s-2.2,1.2-3.8,1.2C28.4,48.2,27.1,47.8,26.2,47.1z"/>
			<path class="st2" d="M26.1,32.6h9.1v1.7H26L26.1,32.6z"/>
			<path class="st2" d="M40.5,47.9l-3.4-8.2h2.3l2.7,6.6c1.3,0.1,2.2-0.3,2.8-1.1s0.9-2,0.9-3.6c0-1-0.1-1.7-0.3-2.3
				c-0.2-0.5-0.5-0.9-0.9-1.2s-1-0.3-1.7-0.3h-0.8V36h1.2c1.7,0,2.9,0.5,3.7,1.4s1.2,2.3,1.2,4.2c0,2.2-0.5,3.9-1.5,5
				s-2.3,1.6-4,1.6C41.7,48.2,41,48.1,40.5,47.9z"/>
			<path class="st2" d="M50,37.8h2.1v1.1h3.2l-0.1,1.8H50V37.8z M50,43.8h2.1v1.1h3.2l-0.1,1.8H50V43.8z"/>
		</g>
	</g>
</g>
<g>
	<path class="st3" d="M28.8,48.1c-0.7-0.7-1.1-1.6-1.1-2.8v-1c0-0.4,0.1-0.8,0.3-1.1c0.2-0.3,0.4-0.8,0.8-1.2
		c0.2-0.3,0.4-0.5,0.5-0.7c0.1-0.2,0.2-0.3,0.2-0.5c0-0.2,0-0.3-0.1-0.4c-0.1-0.1-0.2-0.1-0.5-0.1h-1.3l0.2-1.6H30
		c1,0,1.4,0.5,1.4,1.4c0,0.4-0.1,0.7-0.2,1c-0.1,0.3-0.4,0.7-0.7,1.1c-0.3,0.4-0.5,0.8-0.6,1.1c-0.1,0.3-0.2,0.6-0.2,1v1.2
		c0,1.3,0.8,2,2.3,2c1.6,0,2.4-0.7,2.4-2.1v-1.3c0-0.6-0.1-1-0.3-1.2c-0.2-0.2-0.5-0.4-1.1-0.4h-0.5l0.1-1.5H33
		c0.5,0,0.9-0.1,1.1-0.4s0.3-0.7,0.3-1.2v-1h2.1v0.9c0,0.6-0.1,1.2-0.3,1.5c-0.2,0.4-0.6,0.7-1.1,0.9c0.5,0.2,0.9,0.5,1.1,0.9
		c0.2,0.4,0.3,0.9,0.3,1.5v1.1c0,1.2-0.4,2.2-1.2,2.8s-1.9,1-3.2,1C30.6,49.1,29.5,48.8,28.8,48.1z"/>
	<path class="st3" d="M28.6,35.6h7.8v1.4h-7.9L28.6,35.6z"/>
	<path class="st3" d="M39,45.2c0-1.3,0.5-2.1,1.5-2.4l-2.1-0.5v-2.1c0.6-0.5,1.3-0.9,2.1-1.3c0.8-0.3,1.8-0.5,2.8-0.5
		c1.6,0,2.7,0.3,3.5,1s1.2,1.7,1.2,3.1v6.4H46v-6.4c0-0.9-0.2-1.5-0.6-1.8c-0.4-0.3-1.1-0.5-2.1-0.5c-0.6,0-1.2,0.1-1.8,0.3
		c-0.6,0.2-1,0.4-1.3,0.7v0.3l2.2,0.6v1.4c-0.5,0.1-0.8,0.3-1,0.6c-0.2,0.3-0.3,0.7-0.3,1.3v3.7H39V45.2z"/>
	<path class="st3" d="M50.1,40.1h1.8v0.9h2.8l-0.1,1.5h-4.5V40.1z M50.1,45.3h1.8v1h2.8l-0.1,1.5h-4.5V45.3z"/>
</g>
</svg>
