<?xml version="1.0" encoding="utf-8"?>
<!-- Generator: Adobe Illustrator 25.2.1, SVG Export Plug-In . SVG Version: 6.00 Build 0)  -->
<svg version="1.1" id="Layer_1" xmlns="http://www.w3.org/2000/svg" xmlns:xlink="http://www.w3.org/1999/xlink" x="0px" y="0px"
	 viewBox="0 0 80.8 80.2" style="enable-background:new 0 0 80.8 80.2;" xml:space="preserve">
<style type="text/css">
	.st0{fill:#970000;}
	.st1{display:none;fill:#FFFFFF;}
	.st2{fill:#FFFFFF;}
</style>
<g id="Layer_2_1_">
	<g id="design">
		<rect class="st0" width="80.8" height="80.2"/>
		<path class="st1" d="M7.3,45.7c-0.8-0.5-1.3-1.5-1.3-2.4c0-0.5,0.1-1,0.4-1.4c0.2-0.4,0.6-0.7,1-0.9c-0.4-0.2-0.8-0.4-1-0.8
			C6.1,39.7,6,39.2,6,38.8c-0.1-0.8,0.3-1.6,0.9-2.2c0.7-0.5,1.5-0.8,2.3-0.8c0.6,0,1.1,0.1,1.7,0.2v1.6c-0.4-0.1-0.9-0.2-1.3-0.2
			c-1.1,0-1.6,0.4-1.6,1.3c0,0.9,0.6,1.3,1.8,1.3h1.1l0.1,1.5H9.8c-1.2,0-1.8,0.5-1.8,1.6c0,0.5,0.2,0.9,0.7,1.2
			c0.6,0.3,1.3,0.4,2,0.4c0.7,0,1.4-0.1,2-0.5c0.5-0.4,0.7-1,0.7-1.6V36h2v6.4c0.1,1.1-0.3,2.3-1.2,3.1c-1,0.7-2.2,1.1-3.5,1
			C9.5,46.5,8.3,46.2,7.3,45.7z"/>
		<path class="st1" d="M17.4,37.5h1.8v0.9h2.8L21.9,40h-4.5V37.5z M17.4,42.7h1.8v0.9h2.8l-0.1,1.5h-4.5V42.7z"/>
		<path class="st1" d="M27.5,46.1c-0.6-0.2-1.1-0.6-1.6-1l-0.1,1.1h-1.9V36H26v7.6c0.4,0.4,0.8,0.7,1.3,0.9c0.5,0.2,1,0.3,1.6,0.3
			c1,0.2,2-0.5,2.1-1.5c0-0.2,0-0.4,0-0.6V36h2v6.7c0.1,1-0.3,2-0.9,2.8c-0.7,0.7-1.6,1-2.6,1C28.8,46.5,28.1,46.3,27.5,46.1z"/>
		<path class="st1" d="M35,37.5h1.8v0.9h2.8L39.5,40H35V37.5z M35,42.7h1.8v0.9h2.8l-0.1,1.5H35V42.7z"/>
		<path class="st1" d="M43.6,46.2l-2.9-7h2l2.3,5.7c0.9,0.1,1.8-0.2,2.4-0.9c0.6-0.9,0.8-2,0.8-3.1c0-0.7,0-1.3-0.2-2
			c-0.1-0.4-0.4-0.8-0.8-1c-0.5-0.2-1-0.3-1.5-0.3H45V36h1c1.2-0.1,2.4,0.3,3.2,1.2c0.8,1,1.1,2.3,1,3.6c0.1,1.5-0.3,3-1.2,4.2
			c-0.9,0.9-2.1,1.4-3.4,1.4C44.9,46.4,44.3,46.4,43.6,46.2z"/>
		<path class="st1" d="M51.8,37.5h1.8v0.9h2.8L56.3,40h-4.5V37.5z M51.8,42.7h1.8v0.9h2.8l-0.1,1.5h-4.5V42.7z"/>
		<path class="st1" d="M59.1,45.1c-0.8-1.1-1.2-2.5-1.1-3.9c-0.1-1.4,0.2-2.8,0.9-4.1c0.5-0.9,1.5-1.4,2.5-1.4c0.8,0,1.6,0.3,2,1
			c0.3-0.3,0.6-0.5,1-0.7c0.4-0.2,0.9-0.3,1.3-0.3c0.7,0,1.4,0.2,1.8,0.7c0.4,0.6,0.7,1.3,0.6,2v7.7h-2v-7.4c0-0.4,0-0.7-0.2-1.1
			c-0.2-0.2-0.5-0.4-0.8-0.3c-0.3,0-0.5,0.1-0.7,0.2c-0.2,0.2-0.4,0.4-0.5,0.7h-1.1c-0.1-0.3-0.3-0.5-0.5-0.7
			c-0.2-0.1-0.4-0.2-0.7-0.2c-0.6,0-1.2,0.4-1.3,1c-0.3,0.9-0.4,1.9-0.3,2.8c-0.1,0.9,0.1,1.9,0.6,2.7c0.5,0.6,1.2,0.9,1.9,0.8
			c0.4,0,0.9,0,1.3-0.2v1.6c-0.5,0.2-1.1,0.2-1.7,0.2C61,46.5,59.9,46,59.1,45.1z"/>
		<path class="st1" d="M70.2,37.5H72v0.9h2.8L74.7,40h-4.5V37.5z M70.2,42.7H72v0.9h2.8l-0.1,1.5h-4.5V42.7z"/>
	</g>
</g>
<g>
	<path class="st2" d="M8.2,45.5c-0.8-0.5-1.1-1.2-1.1-2.2c0-0.5,0.1-0.9,0.3-1.2c0.2-0.4,0.5-0.6,0.9-0.8c-0.4-0.1-0.7-0.4-0.9-0.7
		c-0.2-0.3-0.3-0.7-0.3-1.2c0-0.9,0.3-1.5,0.8-2s1.2-0.7,2.1-0.7c0.6,0,1.1,0.1,1.5,0.2v1.4c-0.3-0.1-0.7-0.1-1.2-0.1
		c-1,0-1.4,0.4-1.4,1.2c0,0.8,0.5,1.2,1.6,1.2h1l0.1,1.4h-1.1c-1.1,0-1.6,0.5-1.6,1.4c0,0.5,0.2,0.8,0.6,1c0.4,0.2,1,0.3,1.8,0.3
		s1.4-0.2,1.8-0.5c0.4-0.3,0.6-0.8,0.6-1.5v-5.9h1.8v5.7c0,1.2-0.3,2.2-1,2.8c-0.7,0.6-1.7,0.9-3.1,0.9C10,46.2,9,45.9,8.2,45.5z"/>
	<path class="st2" d="M21.1,40.2c0-0.5-0.1-0.9-0.2-1.2c-0.1-0.3-0.3-0.5-0.6-0.7c-0.3-0.2-0.7-0.2-1.2-0.2c-0.4,0-0.8,0-1.2,0.1
		c-0.4,0.1-0.8,0.2-1.1,0.3v-1.4c0.4-0.1,0.8-0.3,1.3-0.4c0.5-0.1,1-0.1,1.4-0.1c1.2,0,2.1,0.3,2.7,0.8c0.5,0.5,0.8,1.4,0.8,2.5v6
		h-1.9V40.2z"/>
	<path class="st2" d="M28.3,45.9c-0.5-0.2-1-0.5-1.4-0.9l-0.1,1h-1.7v-9.2h1.9v6.8c0.3,0.3,0.7,0.6,1.1,0.8c0.4,0.2,0.9,0.3,1.4,0.3
		c0.6,0,1.1-0.2,1.4-0.5c0.3-0.3,0.5-0.8,0.5-1.5v-5.9h1.8v6c0,1.1-0.3,1.9-0.8,2.5s-1.3,0.9-2.3,0.9C29.4,46.2,28.8,46.1,28.3,45.9
		z"/>
	<path class="st2" d="M38.8,40.2c0-0.5-0.1-0.9-0.2-1.2c-0.1-0.3-0.3-0.5-0.6-0.7c-0.3-0.2-0.7-0.2-1.2-0.2c-0.4,0-0.8,0-1.2,0.1
		c-0.4,0.1-0.8,0.2-1.1,0.3v-1.4c0.4-0.1,0.8-0.3,1.3-0.4c0.5-0.1,1-0.1,1.4-0.1c1.2,0,2.1,0.3,2.7,0.8c0.5,0.5,0.8,1.4,0.8,2.5v6
		h-1.9V40.2z"/>
	<path class="st2" d="M42.9,42.7c0-1.1,0.4-1.8,1.3-2.1l-1.8-0.5v-1.9c0.5-0.5,1.1-0.8,1.9-1.1c0.8-0.3,1.6-0.4,2.5-0.4
		c1.4,0,2.4,0.3,3.1,0.9c0.7,0.6,1.1,1.5,1.1,2.8V46h-1.9v-5.7c0-0.8-0.2-1.3-0.5-1.6c-0.4-0.3-1-0.5-1.9-0.5
		c-0.6,0-1.1,0.1-1.6,0.2c-0.5,0.2-0.9,0.4-1.2,0.6v0.3l1.9,0.5V41c-0.4,0.1-0.8,0.3-0.9,0.5c-0.2,0.2-0.3,0.6-0.3,1.1V46h-1.8V42.7
		z"/>
	<path class="st2" d="M56.7,40.2c0-0.5-0.1-0.9-0.2-1.2c-0.1-0.3-0.3-0.5-0.6-0.7c-0.3-0.2-0.7-0.2-1.2-0.2c-0.4,0-0.8,0-1.2,0.1
		c-0.4,0.1-0.8,0.2-1.1,0.3v-1.4c0.4-0.1,0.8-0.3,1.3-0.4c0.5-0.1,1-0.1,1.4-0.1c1.2,0,2.1,0.3,2.7,0.8c0.5,0.5,0.8,1.4,0.8,2.5v6
		h-1.9V40.2z"/>
	<path class="st2" d="M61.3,45c-0.7-0.8-1-1.9-1-3.5c0-1.6,0.3-2.8,0.8-3.6c0.5-0.8,1.3-1.3,2.2-1.3c0.4,0,0.8,0.1,1.1,0.2
		c0.3,0.1,0.5,0.4,0.8,0.7c0.2-0.3,0.5-0.5,0.9-0.6c0.4-0.2,0.8-0.2,1.2-0.2c0.7,0,1.3,0.2,1.6,0.6c0.4,0.4,0.6,1,0.6,1.8V46h-1.9
		v-6.6c0-0.5-0.1-0.8-0.2-1c-0.1-0.2-0.4-0.3-0.7-0.3c-0.2,0-0.5,0.1-0.6,0.2c-0.2,0.1-0.3,0.3-0.4,0.6h-1c-0.1-0.3-0.3-0.5-0.4-0.6
		c-0.1-0.1-0.4-0.2-0.6-0.2c-0.6,0-0.9,0.3-1.2,0.9c-0.2,0.6-0.3,1.4-0.3,2.5c0,1.1,0.2,1.9,0.6,2.4c0.4,0.5,1,0.7,1.7,0.7
		c0.5,0,0.9,0,1.2-0.1V46c-0.4,0.1-0.9,0.2-1.5,0.2C62.9,46.2,62,45.8,61.3,45z"/>
	<path class="st2" d="M71.3,38.2h1.6V39h2.5l-0.1,1.4h-4V38.2z M71.3,42.8h1.6v0.8h2.5L75.3,45h-4V42.8z"/>
</g>
</svg>
