<?xml version="1.0" encoding="utf-8"?>
<!-- Generator: Adobe Illustrator 25.2.1, SVG Export Plug-In . SVG Version: 6.00 Build 0)  -->
<svg version="1.1" id="Layer_1" xmlns="http://www.w3.org/2000/svg" xmlns:xlink="http://www.w3.org/1999/xlink" x="0px" y="0px"
	 viewBox="0 0 118.2 118.2" style="enable-background:new 0 0 118.2 118.2;" xml:space="preserve">
<style type="text/css">
	.st0{fill:#970000;}
	.st1{display:none;enable-background:new    ;}
	.st2{display:inline;fill:#FFFFFF;}
	.st3{fill:#FFFFFF;}
</style>
<g id="Layer_2_1_">
	<g id="Layer_1-2">
		<path class="st0" d="M118.2,0H0v89.3c1.4-0.5,2.8-0.8,4.2-0.8h13.2c7,0,12.7,5.7,12.7,12.7v4.2c0,7,5.7,12.7,12.7,12.7h75.3
			L118.2,0L118.2,0z"/>
		<g class="st1">
			<path class="st2" d="M47.4,65.4c-0.7-0.1-1.3-0.3-1.9-0.6v-5.3h4.1l0.1,1.6h-2.2v2.5c0.6,0.2,1.3,0.3,2.1,0.3s1.4-0.1,1.8-0.4
				s0.8-0.6,1-1.1s0.3-1.2,0.3-2.1c0-1-0.1-1.7-0.3-2.2s-0.6-0.9-1.1-1.1c-0.5-0.2-1.2-0.3-2.2-0.3c-1.2,0-2.4,0.2-3.4,0.5v-1.6
				c0.5-0.2,1.1-0.3,1.8-0.4s1.4-0.2,2.1-0.2c0.6,0,1.2,0.1,1.8,0.2h4l-0.1,1.6h-1.5c0.6,0.8,0.9,2,0.9,3.6c0,1.8-0.4,3.1-1.2,4
				s-2.1,1.3-3.8,1.3C48.8,65.6,48.1,65.5,47.4,65.4z"/>
			<path class="st2" d="M47,52.1h7.8v1.4h-7.9L47,52.1z"/>
			<path class="st2" d="M58.4,64.8c-0.3-0.4-0.4-1-0.4-1.8v-6.4c0-0.8-0.2-1.4-0.5-1.8c-0.3-0.4-0.8-0.8-1.5-1v-1.6h5.6v1.6h-3
				c0.5,0.3,0.9,0.7,1.1,1.1S60,56,60,56.8v6.1c0,0.3,0.1,0.6,0.2,0.7c0.1,0.1,0.3,0.2,0.7,0.2h0.9v1.6H60
				C59.2,65.4,58.6,65.2,58.4,64.8z"/>
			<path class="st2" d="M64.6,65.4c-0.6-0.1-1.1-0.2-1.5-0.4v-1.7c0.5,0.2,1,0.3,1.5,0.4c0.6,0.1,1.1,0.2,1.6,0.2
				c0.9,0,1.6-0.1,2-0.2c0.4-0.2,0.6-0.5,0.6-1c0-0.3-0.1-0.5-0.2-0.7c-0.2-0.2-0.4-0.3-0.6-0.4s-0.7-0.3-1.2-0.4L66.1,61
				c-1-0.4-1.8-0.7-2.3-1.2c-0.5-0.4-0.8-1-0.8-1.8c0-0.9,0.3-1.6,1-2.2c0.7-0.5,1.7-0.8,3.1-0.8c0.6,0,1.1,0,1.7,0.1
				s1.1,0.2,1.4,0.3v1.7c-0.4-0.2-0.9-0.3-1.4-0.4c-0.5-0.1-1-0.1-1.5-0.1c-0.8,0-1.4,0.1-1.8,0.3s-0.6,0.5-0.6,0.9
				c0,0.3,0.1,0.5,0.3,0.7c0.2,0.2,0.4,0.3,0.7,0.4c0.3,0.1,0.7,0.3,1.3,0.5l0.6,0.2c1.1,0.4,1.9,0.8,2.4,1.2s0.7,1.1,0.7,1.9
				c0,1-0.4,1.7-1.1,2.2s-1.8,0.7-3.1,0.7C65.9,65.6,65.2,65.5,64.6,65.4z"/>
			<path class="st2" d="M73.7,64.6c-0.7-0.7-1.1-1.6-1.1-2.8v-1c0-0.4,0.1-0.8,0.3-1.1s0.4-0.8,0.8-1.2c0.2-0.3,0.4-0.5,0.5-0.7
				s0.2-0.3,0.2-0.5s0-0.3-0.1-0.4c-0.1-0.1-0.2-0.1-0.5-0.1h-1.3l0.2-1.6h2.4c1,0,1.4,0.5,1.4,1.4c0,0.4-0.1,0.7-0.2,1
				s-0.4,0.7-0.7,1.1c-0.3,0.4-0.5,0.8-0.6,1.1s-0.2,0.6-0.2,1V62c0,1.3,0.8,2,2.3,2c1.6,0,2.4-0.7,2.4-2.1v-1.3
				c0-0.6-0.1-1-0.3-1.2S78.5,59,78,59h-0.5l0.1-1.5H78c0.5,0,0.9-0.1,1.1-0.4s0.3-0.7,0.3-1.2v-1h2.1v0.9c0,0.6-0.1,1.2-0.3,1.5
				s-0.6,0.7-1.1,0.9c0.5,0.2,0.9,0.5,1.1,0.9s0.3,0.9,0.3,1.5v1.1c0,1.2-0.4,2.2-1.2,2.8s-1.9,1-3.2,1
				C75.6,65.6,74.5,65.2,73.7,64.6z"/>
			<path class="st2" d="M73.6,52.1h7.8v1.4h-7.9L73.6,52.1z"/>
			<path class="st2" d="M87.4,65.2c-0.6-0.2-1.1-0.5-1.6-1l-0.1,1.1h-1.9V55.1h2.1v7.6c0.4,0.4,0.8,0.7,1.3,0.9s1,0.3,1.6,0.3
				c0.7,0,1.3-0.2,1.6-0.5c0.3-0.3,0.5-0.9,0.5-1.7v-6.6H93v6.7c0,1.2-0.3,2.1-0.9,2.7c-0.6,0.6-1.5,1-2.6,1
				C88.7,65.6,88,65.4,87.4,65.2z"/>
			<path class="st2" d="M94.9,56.6h1.8v0.9h2.8L99.4,59h-4.5C94.9,59,94.9,56.6,94.9,56.6z M94.9,61.8h1.8v1h2.8l-0.1,1.5h-4.5
				C94.9,64.3,94.9,61.8,94.9,61.8z"/>
		</g>
		<path class="st3" d="M39.5,46.5c-0.8-0.8-2.2-0.8-3,0L32,51.2l-11-3.7l-2.3,2.3l9.2,5.7l-4.6,4.8l-3-0.5L18,62l4.4,1.5l1.5,4.4
			l2.1-2.1l-0.5-3l4.9-4.7l5.7,9.2l2.3-2.3l-3.6-11l4.7-4.5C40.3,48.7,40.3,47.3,39.5,46.5z"/>
	</g>
</g>
<g>
	<g>
		<path class="st3" d="M47.4,65c-0.7-0.1-1.3-0.3-1.9-0.6v-5.3h4.1l0.1,1.6h-2.2v2.5c0.6,0.2,1.3,0.3,2.1,0.3c0.8,0,1.4-0.1,1.8-0.4
			s0.8-0.6,1-1.1c0.2-0.5,0.3-1.2,0.3-2.1c0-0.9-0.1-1.7-0.3-2.2c-0.2-0.5-0.6-0.9-1.1-1.1c-0.5-0.2-1.2-0.3-2.2-0.3
			c-1.2,0-2.4,0.2-3.4,0.5v-1.6c0.5-0.2,1.1-0.3,1.8-0.4c0.7-0.1,1.4-0.2,2.1-0.2c0.6,0,1.2,0.1,1.8,0.2h4l-0.1,1.6h-1.5
			c0.6,0.8,0.9,2,0.9,3.6c0,1.8-0.4,3.1-1.2,4c-0.8,0.9-2.1,1.3-3.8,1.3C48.8,65.2,48.1,65.1,47.4,65z"/>
		<path class="st3" d="M47,51.7h7.8v1.4h-7.9L47,51.7z"/>
		<path class="st3" d="M58.3,64.4c-0.3-0.4-0.4-1-0.4-1.8v-6.4c0-0.8-0.2-1.4-0.5-1.8c-0.3-0.4-0.8-0.8-1.5-1v-1.6h5.6v1.6h-3
			c0.5,0.3,0.9,0.7,1.1,1.1c0.2,0.4,0.3,1.1,0.3,1.9v6.1c0,0.3,0.1,0.6,0.2,0.7c0.1,0.1,0.3,0.2,0.7,0.2h0.9V65h-1.8
			C59.2,65,58.6,64.8,58.3,64.4z"/>
		<path class="st3" d="M64.6,65c-0.6-0.1-1.1-0.2-1.5-0.4v-1.7c0.5,0.2,1,0.3,1.5,0.4s1.1,0.2,1.6,0.2c0.9,0,1.6-0.1,2-0.2
			c0.4-0.2,0.6-0.5,0.6-1c0-0.3-0.1-0.5-0.2-0.7c-0.2-0.2-0.4-0.3-0.6-0.4c-0.3-0.1-0.7-0.3-1.2-0.4l-0.7-0.2
			c-1-0.4-1.8-0.7-2.3-1.2c-0.5-0.4-0.8-1-0.8-1.8c0-0.9,0.3-1.6,1-2.2c0.7-0.5,1.7-0.8,3.1-0.8c0.6,0,1.1,0,1.7,0.1
			c0.6,0.1,1.1,0.2,1.4,0.3v1.7c-0.4-0.2-0.9-0.3-1.4-0.4c-0.5-0.1-1-0.1-1.5-0.1c-0.8,0-1.4,0.1-1.8,0.3c-0.4,0.2-0.6,0.5-0.6,0.9
			c0,0.3,0.1,0.5,0.3,0.7c0.2,0.2,0.4,0.3,0.7,0.4c0.3,0.1,0.7,0.3,1.3,0.5l0.6,0.2c1.1,0.4,1.9,0.8,2.4,1.2
			c0.5,0.4,0.7,1.1,0.7,1.9c0,1-0.4,1.7-1.1,2.2c-0.7,0.5-1.8,0.7-3.1,0.7C65.8,65.2,65.2,65.1,64.6,65z"/>
		<path class="st3" d="M73.7,64.2c-0.7-0.7-1.1-1.6-1.1-2.8v-1c0-0.4,0.1-0.8,0.3-1.1c0.2-0.3,0.4-0.8,0.8-1.2
			c0.2-0.3,0.4-0.5,0.5-0.7c0.1-0.2,0.2-0.3,0.2-0.5c0-0.2,0-0.3-0.1-0.4c-0.1-0.1-0.2-0.1-0.5-0.1h-1.3l0.2-1.6h2.4
			c1,0,1.4,0.5,1.4,1.4c0,0.4-0.1,0.7-0.2,1c-0.1,0.3-0.4,0.7-0.7,1.1c-0.3,0.4-0.5,0.8-0.6,1.1c-0.1,0.3-0.2,0.6-0.2,1v1.2
			c0,1.3,0.8,2,2.3,2c1.6,0,2.4-0.7,2.4-2.1v-1.3c0-0.6-0.1-1-0.3-1.2s-0.5-0.4-1.1-0.4h-0.5l0.1-1.5h0.4c0.5,0,0.9-0.1,1.1-0.4
			s0.3-0.7,0.3-1.2v-1h2.1v0.9c0,0.6-0.1,1.2-0.3,1.5s-0.6,0.7-1.1,0.9c0.5,0.2,0.9,0.5,1.1,0.9s0.3,0.9,0.3,1.5v1.1
			c0,1.2-0.4,2.2-1.2,2.8c-0.8,0.7-1.9,1-3.2,1C75.5,65.2,74.4,64.8,73.7,64.2z"/>
		<path class="st3" d="M73.5,51.7h7.8v1.4h-7.9L73.5,51.7z"/>
		<path class="st3" d="M87.4,64.8c-0.6-0.2-1.1-0.5-1.6-1L85.6,65h-1.9V54.7h2.1v7.6c0.4,0.4,0.8,0.7,1.3,0.9c0.5,0.2,1,0.3,1.6,0.3
			c0.7,0,1.3-0.2,1.6-0.5c0.3-0.3,0.5-0.9,0.5-1.7v-6.6h2.1v6.7c0,1.2-0.3,2.1-0.9,2.7s-1.5,1-2.6,1C88.6,65.2,87.9,65.1,87.4,64.8z
			"/>
		<path class="st3" d="M90.8,50h2.1v3.1h-2.1V50z"/>
		<path class="st3" d="M99.1,58.5c0-0.6-0.1-1-0.2-1.3s-0.3-0.6-0.7-0.7c-0.3-0.2-0.8-0.3-1.4-0.3c-0.4,0-0.8,0-1.3,0.1
			c-0.5,0.1-0.9,0.2-1.3,0.4v-1.6c0.4-0.2,0.9-0.3,1.4-0.4c0.5-0.1,1.1-0.2,1.6-0.2c1.4,0,2.4,0.3,3,0.9s0.9,1.5,0.9,2.8V65h-2.1
			V58.5z"/>
	</g>
</g>
</svg>
