<?xml version="1.0" encoding="utf-8"?>
<!-- Generator: Adobe Illustrator 25.2.1, SVG Export Plug-In . SVG Version: 6.00 Build 0)  -->
<svg version="1.1" id="Layer_1" xmlns="http://www.w3.org/2000/svg" xmlns:xlink="http://www.w3.org/1999/xlink" x="0px" y="0px"
	 viewBox="0 0 124.6 94.9" style="enable-background:new 0 0 124.6 94.9;" xml:space="preserve">
<style type="text/css">
	.st0{fill:#970000;}
	.st1{display:none;enable-background:new    ;}
	.st2{display:inline;fill:#FFFFFF;}
	.st3{fill:#FFFFFF;}
</style>
<g id="Layer_2_1_">
	<g id="Layer_1-2">
		<rect class="st0" width="124.6" height="94.9"/>
		<g class="st1">
			<path class="st2" d="M43.3,53c0-1.3,0.5-2.1,1.5-2.4l-2.1-0.5V48c0.6-0.5,1.3-0.9,2.1-1.3c0.8-0.3,1.8-0.5,2.8-0.5
				c1.6,0,2.7,0.3,3.5,1c0.8,0.6,1.2,1.7,1.2,3.1v6.4h-2.1v-6.4c0-0.9-0.2-1.5-0.6-1.8c-0.4-0.3-1.1-0.5-2.1-0.5
				c-0.6,0-1.2,0.1-1.8,0.3s-1,0.4-1.3,0.7v0.3l2.2,0.6v1.4c-0.5,0.1-0.8,0.3-1,0.6s-0.3,0.7-0.3,1.3v3.7h-2.1L43.3,53L43.3,53z"/>
			<path class="st2" d="M50.6,59.2h-1.2l0.1-1.3h2.9v3.7h-1.8V59.2z"/>
			<path class="st2" d="M58.4,56.6c-0.6-0.2-1.1-0.5-1.6-1l-0.1,1.1h-1.9V46.5h2.1v7.6c0.4,0.4,0.8,0.7,1.3,0.9s1,0.3,1.6,0.3
				c0.7,0,1.3-0.2,1.6-0.5s0.5-0.9,0.5-1.7v-6.6H64v6.7c0,1.2-0.3,2.1-0.9,2.7c-0.6,0.7-1.5,1-2.6,1C59.6,56.9,58.9,56.8,58.4,56.6z
				"/>
			<path class="st2" d="M69.9,56.6c-0.6-0.2-1.1-0.5-1.6-1l-0.1,1.1h-1.9V46.5h2.1v7.6c0.4,0.4,0.8,0.7,1.3,0.9s1,0.3,1.6,0.3
				c0.7,0,1.3-0.2,1.6-0.5c0.3-0.3,0.5-0.9,0.5-1.7v-6.6h2.1v6.7c0,1.2-0.3,2.1-0.9,2.7s-1.5,1-2.6,1C71.1,56.9,70.4,56.8,69.9,56.6
				z"/>
			<path class="st2" d="M77.4,48h1.8v0.9H82l-0.1,1.5h-4.5C77.4,50.4,77.4,48,77.4,48z M77.4,53.2h1.8v1H82l-0.1,1.5h-4.5
				C77.4,55.7,77.4,53.2,77.4,53.2z"/>
		</g>
	</g>
</g>
<g>
	<g>
		<path class="st3" d="M43.2,53.6c0-1.3,0.5-2.1,1.5-2.4l-2.1-0.5v-2.1c0.6-0.5,1.3-0.9,2.1-1.3s1.8-0.5,2.8-0.5
			c1.6,0,2.7,0.3,3.5,1s1.2,1.7,1.2,3.1v6.4h-2.1v-6.4c0-0.9-0.2-1.5-0.6-1.8c-0.4-0.3-1.1-0.5-2.1-0.5c-0.6,0-1.2,0.1-1.8,0.3
			c-0.6,0.2-1,0.4-1.3,0.7v0.3l2.2,0.6v1.4c-0.5,0.1-0.8,0.3-1,0.6c-0.2,0.3-0.3,0.7-0.3,1.3v3.7h-2.1V53.6z"/>
		<path class="st3" d="M50.5,59.7h-1.2l0.1-1.3h2.9v3.7h-1.8V59.7z"/>
		<path class="st3" d="M55.6,56.5c-0.6-0.7-0.9-1.6-0.9-2.7V47h2.1v6.6c0,0.8,0.2,1.3,0.5,1.7s0.9,0.5,1.6,0.5
			c0.5,0,1.1-0.1,1.6-0.3c0.5-0.2,0.9-0.5,1.3-0.9V47h2.1v10.3h-1.9l-0.1-1.1c-1,0.9-2.2,1.3-3.6,1.3C57.1,57.5,56.2,57.2,55.6,56.5
			z"/>
		<path class="st3" d="M69.8,57.1c-0.6-0.2-1.1-0.5-1.6-1L68,57.3h-1.9V47h2.1v7.6c0.4,0.4,0.8,0.7,1.3,0.9c0.5,0.2,1,0.3,1.6,0.3
			c0.7,0,1.3-0.2,1.6-0.5c0.3-0.3,0.5-0.9,0.5-1.7V47h2.1v6.7c0,1.2-0.3,2.1-0.9,2.7s-1.5,1-2.6,1C71,57.5,70.3,57.4,69.8,57.1z"/>
		<path class="st3" d="M77.3,48.5H79v0.9h2.8L81.7,51h-4.5V48.5z M77.3,53.7H79v1h2.8l-0.1,1.5h-4.5V53.7z"/>
	</g>
</g>
</svg>
