<?xml version="1.0" encoding="utf-8"?>
<!-- Generator: Adobe Illustrator 25.0.1, SVG Export Plug-In . SVG Version: 6.00 Build 0)  -->
<svg version="1.1" id="Layer_1" xmlns="http://www.w3.org/2000/svg" xmlns:xlink="http://www.w3.org/1999/xlink" x="0px" y="0px"
	 viewBox="0 0 154.2 84.8" style="enable-background:new 0 0 154.2 84.8;" xml:space="preserve">
<style type="text/css">
	.st0{fill:#20A846;}
	.st1{enable-background:new    ;}
	.st2{fill:#FFFFFF;}
</style>
<g id="Layer_2_1_">
	<g id="Layer_1-2">
		<path class="st0" d="M154.2,84.8V0H97v26c0,7-5.7,12.7-12.7,12.7H0v46.1H154.2z"/>
		<g class="st1">
			<path class="st2" d="M59.6,55.3h2l1.5,7.3l1.9-5.9v-1.5h1.5l2.1,7.3l2.1-10.4h2l-2.9,13.3h-1.9l-1.9-6.5l-2.1,6.5H62L59.6,55.3z"
				/>
			<path class="st2" d="M69.8,68h-1.2l0.1-1.3h2.9v3.7h-1.8V68z"/>
			<path class="st2" d="M73.9,59.1c0-1.3,0.4-2.2,1.1-2.9c0.8-0.7,1.9-1,3.5-1s2.7,0.3,3.5,1c0.8,0.7,1.1,1.7,1.1,2.9v6.5h-2.1v-6.7
				c0-1.4-0.8-2.1-2.5-2.1c-0.9,0-1.5,0.2-1.9,0.5c-0.4,0.3-0.6,0.9-0.6,1.6V61c0.6-0.5,1.2-0.7,2-0.7h1.2l0.1,1.7H78
				c-0.8,0-1.4,0.2-1.9,0.6v3h-2.1V59.1z"/>
			<path class="st2" d="M81.4,68h-1.2l0.1-1.3h2.9v3.7h-1.8V68z"/>
			<path class="st2" d="M87.2,65.6c-0.7-0.1-1.3-0.3-1.9-0.6v-5.3h4.1l0.1,1.6h-2.2v2.5c0.6,0.2,1.3,0.3,2.1,0.3
				c0.8,0,1.4-0.1,1.8-0.4s0.8-0.6,1-1.1c0.2-0.5,0.3-1.2,0.3-2.1c0-1-0.1-1.7-0.3-2.2c-0.2-0.5-0.6-0.9-1.1-1.1
				c-0.5-0.2-1.2-0.3-2.2-0.3c-1.2,0-2.4,0.2-3.4,0.5v-1.6c0.5-0.2,1.1-0.3,1.8-0.4s1.4-0.2,2.1-0.2c1.8,0,3,0.4,3.9,1.3
				c0.8,0.9,1.2,2.2,1.2,4c0,1.8-0.4,3.1-1.2,4c-0.8,0.9-2.1,1.3-3.8,1.3C88.7,65.8,87.9,65.7,87.2,65.6z"/>
			<path class="st2" d="M86.3,52.3h7.8v1.4h-7.9L86.3,52.3z"/>
		</g>
	</g>
</g>
</svg>
