<?xml version="1.0" encoding="utf-8"?>
<!-- Generator: Adobe Illustrator 25.2.1, SVG Export Plug-In . SVG Version: 6.00 Build 0)  -->
<svg version="1.1" id="Layer_1" xmlns="http://www.w3.org/2000/svg" xmlns:xlink="http://www.w3.org/1999/xlink" x="0px" y="0px"
	 viewBox="0 0 124.6 94.9" style="enable-background:new 0 0 124.6 94.9;" xml:space="preserve">
<style type="text/css">
	.st0{fill:#15A1D6;}
	.st1{display:none;enable-background:new    ;}
	.st2{display:inline;fill:#FFFFFF;}
	.st3{fill:#FFFFFF;}
</style>
<g id="Layer_2_1_">
	<g id="Layer_1-2">
		<rect x="-0.2" class="st0" width="124.6" height="94.9"/>
		<g class="st1">
			<path class="st2" d="M43.1,53c0-1.3,0.5-2.1,1.5-2.4l-2.1-0.5V48c0.6-0.5,1.3-0.9,2.1-1.3c0.8-0.3,1.8-0.5,2.8-0.5
				c1.6,0,2.7,0.3,3.5,1c0.8,0.6,1.2,1.7,1.2,3.1v6.4H50v-6.4c0-0.9-0.2-1.5-0.6-1.8C49,48.2,48.3,48,47.3,48
				c-0.6,0-1.2,0.1-1.8,0.3s-1,0.4-1.3,0.7v0.3l2.2,0.6v1.4c-0.5,0.1-0.8,0.3-1,0.6s-0.3,0.7-0.3,1.3v3.7H43L43.1,53L43.1,53z"/>
			<path class="st2" d="M50.4,59.2h-1.2l0.1-1.3h2.9v3.7h-1.8V59.2z"/>
			<path class="st2" d="M58.2,56.6c-0.6-0.2-1.1-0.5-1.6-1l-0.1,1.1h-1.9V46.5h2.1v7.6c0.4,0.4,0.8,0.7,1.3,0.9s1,0.3,1.6,0.3
				c0.7,0,1.3-0.2,1.6-0.5s0.5-0.9,0.5-1.7v-6.6h2.1v6.7c0,1.2-0.3,2.1-0.9,2.7c-0.6,0.7-1.5,1-2.6,1C59.4,56.9,58.7,56.8,58.2,56.6
				z"/>
			<path class="st2" d="M69.7,56.6c-0.6-0.2-1.1-0.5-1.6-1L68,56.7h-1.9V46.5h2.1v7.6c0.4,0.4,0.8,0.7,1.3,0.9s1,0.3,1.6,0.3
				c0.7,0,1.3-0.2,1.6-0.5c0.3-0.3,0.5-0.9,0.5-1.7v-6.6h2.1v6.7c0,1.2-0.3,2.1-0.9,2.7s-1.5,1-2.6,1C70.9,56.9,70.2,56.8,69.7,56.6
				z"/>
			<path class="st2" d="M77.2,48H79v0.9h2.8l-0.1,1.5h-4.5C77.2,50.4,77.2,48,77.2,48z M77.2,53.2H79v1h2.8l-0.1,1.5h-4.5
				C77.2,55.7,77.2,53.2,77.2,53.2z"/>
		</g>
	</g>
</g>
<g>
	<g>
		<path class="st3" d="M43.4,53.6c0-1.3,0.5-2.1,1.5-2.4l-2.1-0.5v-2.1c0.6-0.5,1.3-0.9,2.1-1.3s1.8-0.5,2.8-0.5
			c1.6,0,2.7,0.3,3.5,1s1.2,1.7,1.2,3.1v6.4h-2.1v-6.4c0-0.9-0.2-1.5-0.6-1.8c-0.4-0.3-1.1-0.5-2.1-0.5c-0.6,0-1.2,0.1-1.8,0.3
			c-0.6,0.2-1,0.4-1.3,0.7v0.3l2.2,0.6v1.4c-0.5,0.1-0.8,0.3-1,0.6c-0.2,0.3-0.3,0.7-0.3,1.3v3.7h-2.1V53.6z"/>
		<path class="st3" d="M50.7,59.7h-1.2l0.1-1.3h2.9v3.7h-1.8V59.7z"/>
		<path class="st3" d="M55.8,56.5c-0.6-0.7-0.9-1.6-0.9-2.7V47H57v6.6c0,0.8,0.2,1.3,0.5,1.7s0.9,0.5,1.6,0.5c0.5,0,1.1-0.1,1.6-0.3
			c0.5-0.2,0.9-0.5,1.3-0.9V47H64v10.3h-1.9L62,56.2c-1,0.9-2.2,1.3-3.6,1.3C57.3,57.5,56.4,57.2,55.8,56.5z"/>
		<path class="st3" d="M70,57.1c-0.6-0.2-1.1-0.5-1.6-1l-0.1,1.1h-1.9V47h2.1v7.6c0.4,0.4,0.8,0.7,1.3,0.9c0.5,0.2,1,0.3,1.6,0.3
			c0.7,0,1.3-0.2,1.6-0.5c0.3-0.3,0.5-0.9,0.5-1.7V47h2.1v6.7c0,1.2-0.3,2.1-0.9,2.7s-1.5,1-2.6,1C71.2,57.5,70.5,57.4,70,57.1z"/>
		<path class="st3" d="M77.5,48.5h1.8v0.9H82L82,51h-4.5V48.5z M77.5,53.7h1.8v1H82L82,56.2h-4.5V53.7z"/>
	</g>
</g>
</svg>
