<?xml version="1.0" encoding="utf-8"?>
<!-- Generator: Adobe Illustrator 25.2.1, SVG Export Plug-In . SVG Version: 6.00 Build 0)  -->
<svg version="1.1" id="Layer_1" xmlns="http://www.w3.org/2000/svg" xmlns:xlink="http://www.w3.org/1999/xlink" x="0px" y="0px"
	 viewBox="0 0 49.9 119.7" style="enable-background:new 0 0 49.9 119.7;" xml:space="preserve">
<style type="text/css">
	.st0{fill:#970000;}
	.st1{display:none;enable-background:new    ;}
	.st2{display:inline;fill:#FFFFFF;}
	.st3{fill:#FFFFFF;}
</style>
<g id="Layer_2_1_">
	<g id="Layer_1-2">
		<path class="st0" d="M21.7,119.7h28.2V0H0v102.5h9.6c6.7,0,12.2,5.5,12.2,12.2L21.7,119.7z"/>
		<g class="st1">
			<path class="st2" d="M9.6,64.8c-0.8-0.6-1.1-1.6-1.1-2.7v-0.8c0-0.4,0.1-0.8,0.4-1.2c0.2-0.4,0.6-0.9,1-1.4
				c0.3-0.4,0.5-0.7,0.6-0.9s0.2-0.4,0.2-0.5c0-0.3-0.1-0.4-0.4-0.4c-0.2,0-0.4,0.1-0.6,0.3V58H8.3v-2.6h1.4v0.5
				c0.2-0.2,0.4-0.3,0.6-0.4c0.2-0.1,0.5-0.1,0.8-0.1c0.5,0,0.8,0.1,1.1,0.4s0.4,0.6,0.4,1.1c0,0.4-0.1,0.8-0.3,1.1
				s-0.4,0.8-0.8,1.2c-0.3,0.5-0.6,0.9-0.7,1.2c-0.2,0.3-0.2,0.6-0.2,1v0.8c0,0.7,0.2,1.2,0.6,1.5c0.4,0.3,1,0.5,1.7,0.5
				c1.6,0,2.4-0.7,2.4-2.1v-1.3c0-0.6-0.1-1-0.3-1.2s-0.6-0.4-1.1-0.4h-0.5l0.1-1.5h0.4c0.5,0,0.9-0.1,1.1-0.4
				c0.2-0.3,0.3-0.7,0.3-1.2v-1h2.1V56c0,0.6-0.1,1.1-0.3,1.5c-0.2,0.4-0.5,0.7-1.1,0.9c0.5,0.2,0.9,0.5,1.1,0.9s0.3,0.9,0.3,1.5
				v1.1c0,1.2-0.4,2.2-1.2,2.8s-1.9,1-3.3,1C11.5,65.8,10.4,65.5,9.6,64.8z"/>
			<path class="st2" d="M19.3,56.9h1.8v0.9h2.8l-0.1,1.5h-4.5C19.3,59.3,19.3,56.9,19.3,56.9z M19.3,62h1.8v1h2.8l-0.1,1.5h-4.5
				C19.3,64.5,19.3,62,19.3,62z"/>
			<path class="st2" d="M26.1,61.9c0-1.3,0.5-2.1,1.5-2.4L25.5,59v-2.1c0.6-0.5,1.3-0.9,2.1-1.3c0.8-0.3,1.8-0.5,2.8-0.5
				c1.6,0,2.7,0.3,3.5,1c0.8,0.6,1.2,1.7,1.2,3.1v6.4H33v-6.4c0-0.9-0.2-1.5-0.6-1.8c-0.4-0.3-1.1-0.5-2.1-0.5
				c-0.6,0-1.2,0.1-1.8,0.3s-1,0.4-1.3,0.7v0.3l2.2,0.6v1.4c-0.5,0.1-0.8,0.3-1,0.6s-0.3,0.7-0.3,1.3v3.7H26L26.1,61.9L26.1,61.9z"
				/>
			<path class="st2" d="M37.1,56.9h1.8v0.9h2.8l-0.1,1.5h-4.5V56.9z M37.1,62h1.8v1h2.8l-0.1,1.5h-4.5V62z"/>
		</g>
	</g>
</g>
<g>
	<path class="st3" d="M9.6,65.1c-0.8-0.6-1.1-1.6-1.1-2.7v-0.8c0-0.4,0.1-0.8,0.4-1.2c0.2-0.4,0.6-0.9,1-1.4
		c0.3-0.4,0.5-0.7,0.6-0.9c0.1-0.2,0.2-0.4,0.2-0.5c0-0.3-0.1-0.4-0.4-0.4c-0.2,0-0.4,0.1-0.6,0.3v0.8H8.3v-2.6h1.4v0.5
		c0.2-0.2,0.4-0.3,0.6-0.4c0.2-0.1,0.5-0.1,0.8-0.1c0.5,0,0.8,0.1,1.1,0.4s0.4,0.6,0.4,1.1c0,0.4-0.1,0.8-0.3,1.1
		c-0.2,0.3-0.4,0.8-0.8,1.2c-0.3,0.5-0.6,0.9-0.7,1.2c-0.2,0.3-0.2,0.6-0.2,1v0.8c0,0.7,0.2,1.2,0.6,1.5c0.4,0.3,1,0.5,1.7,0.5
		c1.6,0,2.4-0.7,2.4-2.1v-1.3c0-0.6-0.1-1-0.3-1.2c-0.2-0.2-0.6-0.4-1.1-0.4h-0.5l0.1-1.5h0.4c0.5,0,0.9-0.1,1.1-0.4
		c0.2-0.3,0.3-0.7,0.3-1.2v-1h2.1v0.9c0,0.6-0.1,1.1-0.3,1.5c-0.2,0.4-0.5,0.7-1.1,0.9c0.5,0.2,0.9,0.5,1.1,0.9
		c0.2,0.4,0.3,0.9,0.3,1.5v1.1c0,1.2-0.4,2.2-1.2,2.8c-0.8,0.7-1.9,1-3.3,1C11.5,66.1,10.4,65.8,9.6,65.1z"/>
	<path class="st3" d="M23.6,59.4c0-0.6-0.1-1-0.2-1.3c-0.1-0.3-0.3-0.6-0.7-0.7c-0.3-0.2-0.8-0.3-1.4-0.3c-0.4,0-0.8,0-1.3,0.1
		c-0.5,0.1-0.9,0.2-1.3,0.4V56c0.4-0.2,0.9-0.3,1.4-0.4c0.5-0.1,1.1-0.2,1.6-0.2c1.4,0,2.4,0.3,3,0.9c0.6,0.6,0.9,1.5,0.9,2.8v6.7
		h-2.1V59.4z"/>
	<path class="st3" d="M28.2,62.2c0-1.3,0.5-2.1,1.5-2.4l-2.1-0.5v-2.1c0.6-0.5,1.3-0.9,2.1-1.3c0.8-0.3,1.8-0.5,2.8-0.5
		c1.6,0,2.7,0.3,3.5,1s1.2,1.7,1.2,3.1v6.4h-2.1v-6.4c0-0.9-0.2-1.5-0.6-1.8c-0.4-0.3-1.1-0.5-2.1-0.5c-0.6,0-1.2,0.1-1.8,0.3
		c-0.6,0.2-1,0.4-1.3,0.7v0.3l2.2,0.6v1.4c-0.5,0.1-0.8,0.3-1,0.6c-0.2,0.3-0.3,0.7-0.3,1.3v3.7h-2.1V62.2z"/>
	<path class="st3" d="M39.3,57.1h1.8v0.9h2.8l-0.1,1.5h-4.5V57.1z M39.3,62.3h1.8v1h2.8l-0.1,1.5h-4.5V62.3z"/>
</g>
</svg>
