<?xml version="1.0" encoding="utf-8"?>
<!-- Generator: Adobe Illustrator 25.0.1, SVG Export Plug-In . SVG Version: 6.00 Build 0)  -->
<svg version="1.1" id="Layer_1" xmlns="http://www.w3.org/2000/svg" xmlns:xlink="http://www.w3.org/1999/xlink" x="0px" y="0px"
	 viewBox="0 0 110.3 38" style="enable-background:new 0 0 110.3 38;" xml:space="preserve">
<style type="text/css">
	.st0{fill:#15A1D6;}
	.st1{enable-background:new    ;}
	.st2{fill:#FFFFFF;}
</style>
<g id="Layer_2_1_">
	<g id="Layer_1-2">
		<path class="st0" d="M110.2,27.5V0H0v38h104.7C104.7,33.8,106.8,29.9,110.2,27.5L110.2,27.5z"/>
		<g class="st1">
			<path class="st2" d="M39.2,26.9c-0.3-0.4-0.4-1-0.4-1.8v-6.4c0-0.8-0.2-1.4-0.5-1.8c-0.3-0.4-0.8-0.8-1.5-1v-1.6h5.6v1.6h-3
				c0.5,0.3,0.9,0.7,1.1,1.1s0.3,1.1,0.3,1.9V25c0,0.3,0.1,0.6,0.2,0.7c0.1,0.1,0.3,0.2,0.7,0.2h0.9v1.6h-1.8
				C40,27.5,39.5,27.3,39.2,26.9z"/>
			<path class="st2" d="M44.8,26.4c-0.8-0.9-1.1-2.1-1.1-3.9c0-1.8,0.3-3.1,0.9-4.1c0.6-0.9,1.4-1.4,2.5-1.4c0.5,0,0.9,0.1,1.2,0.2
				c0.3,0.2,0.6,0.4,0.8,0.7c0.3-0.3,0.6-0.5,1-0.7S51,17,51.4,17c0.8,0,1.4,0.2,1.8,0.7s0.6,1.2,0.6,2v7.7h-2.1v-7.4
				c0-0.5-0.1-0.9-0.2-1.1s-0.4-0.3-0.8-0.3c-0.3,0-0.5,0.1-0.7,0.2s-0.4,0.4-0.5,0.7h-1.1c-0.2-0.3-0.3-0.5-0.5-0.7
				c-0.2-0.1-0.4-0.2-0.7-0.2c-0.6,0-1.1,0.3-1.3,1c-0.2,0.6-0.4,1.6-0.4,2.8c0,1.3,0.2,2.2,0.6,2.7c0.4,0.5,1.1,0.8,1.9,0.8
				c0.6,0,1-0.1,1.3-0.2v1.6c-0.4,0.2-1,0.2-1.7,0.2C46.6,27.7,45.5,27.2,44.8,26.4z"/>
			<path class="st2" d="M56.3,25.5v-8.3h2.1V25c0,0.3,0.1,0.5,0.2,0.6c0.1,0.1,0.3,0.2,0.6,0.2h0.9v1.6h-1.8
				C57,27.5,56.3,26.8,56.3,25.5z"/>
			<path class="st2" d="M62.3,23.8c0-1.3,0.5-2.1,1.5-2.4l-2.1-0.5v-2.1c0.6-0.5,1.3-0.9,2.1-1.3c0.8-0.3,1.8-0.5,2.8-0.5
				c1.6,0,2.7,0.3,3.5,1c0.8,0.6,1.2,1.7,1.2,3.1v6.4h-2.1v-6.4c0-0.9-0.2-1.5-0.6-1.8c-0.4-0.3-1.1-0.5-2.1-0.5
				c-0.6,0-1.2,0.1-1.8,0.3s-1,0.4-1.3,0.7V20l2.2,0.6v1.4c-0.5,0.1-0.8,0.3-1,0.6c-0.2,0.3-0.3,0.7-0.3,1.3v3.7h-2.1V23.8z"/>
			<path class="st2" d="M63.5,14.2h6.1v-1.6h1.7v3h-7.9L63.5,14.2z"/>
			<path class="st2" d="M74.6,26.9c-0.8-0.5-1.3-1.3-1.3-2.4c0-0.5,0.1-1,0.4-1.4c0.2-0.4,0.6-0.7,1.1-0.9c-0.4-0.2-0.8-0.4-1-0.8
				c-0.2-0.4-0.4-0.8-0.4-1.4c0-0.9,0.3-1.7,0.9-2.2c0.6-0.5,1.4-0.8,2.3-0.8c0.6,0,1.2,0.1,1.7,0.2v1.6c-0.4-0.1-0.8-0.2-1.3-0.2
				c-1.1,0-1.6,0.4-1.6,1.3c0,0.9,0.6,1.4,1.8,1.4h1.1l0.1,1.5h-1.2c-1.2,0-1.8,0.5-1.8,1.6c0,0.5,0.2,0.9,0.6,1.2s1.1,0.4,2,0.4
				s1.6-0.2,2-0.5c0.4-0.4,0.7-0.9,0.7-1.6v-6.6h2.1v6.4c0,1.4-0.4,2.4-1.2,3.1c-0.8,0.7-1.9,1-3.5,1C76.6,27.7,75.5,27.4,74.6,26.9
				z"/>
			<path class="st2" d="M84.6,27.1v-1.6c0.9,0.4,1.7,0.6,2.6,0.6c0.9,0,1.6-0.1,2.1-0.4s0.9-0.6,1.1-1.2c0.2-0.5,0.3-1.2,0.3-2.1
				c0-1.3-0.3-2.3-0.8-2.8c-0.5-0.6-1.4-0.8-2.7-0.8c-0.9,0-1.7,0.2-2.6,0.6v-1.7c0.9-0.4,1.9-0.6,3-0.6c1.7,0,2.9,0.5,3.8,1.3
				c0.8,0.9,1.3,2.2,1.3,4s-0.4,3.1-1.2,4c-0.8,0.9-2.1,1.3-3.8,1.3C86.5,27.7,85.5,27.5,84.6,27.1z"/>
		</g>
		<path class="st2" d="M24.7,8.6c-0.8-0.8-2.2-0.8-3,0l-4.5,4.7l-11-3.7L3.8,12l9.2,5.6l-4.6,4.8l-3-0.5l-2.1,2.1l4.4,1.5L9.2,30
			l2.1-2.1l-0.5-3l4.8-4.6l5.7,9.2l2.3-2.3l-3.6-11l4.7-4.5C25.5,10.8,25.6,9.5,24.7,8.6C24.7,8.6,24.7,8.6,24.7,8.6z"/>
	</g>
</g>
</svg>
