<?xml version="1.0" encoding="utf-8"?>
<!-- Generator: Adobe Illustrator 25.2.1, SVG Export Plug-In . SVG Version: 6.00 Build 0)  -->
<svg version="1.1" id="Layer_1" xmlns="http://www.w3.org/2000/svg" xmlns:xlink="http://www.w3.org/1999/xlink" x="0px" y="0px"
	 viewBox="0 0 104.7 44.5" style="enable-background:new 0 0 104.7 44.5;" xml:space="preserve">
<style type="text/css">
	.st0{fill:#970000;}
	.st1{display:none;enable-background:new    ;}
	.st2{display:inline;fill:#FFFFFF;}
	.st3{fill:#FFFFFF;}
</style>
<g id="Layer_2_1_">
	<g id="Layer_1-2">
		<path class="st0" d="M0,44.5L0,44.5c0.7-0.1,1.4-0.2,2.1-0.2H92c7,0,12.7-5.7,12.7-12.7V0H0V44.5z"/>
		<g class="st1">
			<path class="st2" d="M19.6,24.2c0-1.3,0.4-2.2,1.1-2.9c0.8-0.7,1.9-1,3.5-1s2.7,0.3,3.5,1s1.1,1.7,1.1,2.9v6.5h-2.1V24
				c0-1.4-0.8-2.1-2.5-2.1c-0.9,0-1.5,0.2-1.9,0.5s-0.6,0.9-0.6,1.6v2.1c0.6-0.5,1.2-0.7,2-0.7h1.2l0.1,1.7h-1.4
				c-0.8,0-1.4,0.2-1.9,0.6v3h-2.1C19.6,30.7,19.6,24.2,19.6,24.2z"/>
			<path class="st2" d="M31,21.9h1.8v0.9h2.8l-0.1,1.5H31V21.9z M31,27.1h1.8V28h2.8l-0.1,1.5H31V27.1z"/>
			<path class="st2" d="M38.4,29.9c-0.6-0.7-0.9-1.6-0.9-2.7v-6.7h2.1v6.6c0,0.8,0.2,1.3,0.5,1.7c0.3,0.3,0.9,0.5,1.6,0.5
				c0.5,0,1.1-0.1,1.6-0.3c0.5-0.2,0.9-0.5,1.3-0.9v-7.6h2.1v10.3h-1.9l-0.1-1.1c-1,0.9-2.2,1.3-3.6,1.3
				C39.9,30.9,39,30.6,38.4,29.9z"/>
			<path class="st2" d="M48.6,21.9h1.8v0.9h2.8l-0.1,1.5h-4.5V21.9z M48.6,27.1h1.8V28h2.8l-0.1,1.5h-4.5V27.1z"/>
			<path class="st2" d="M57.3,30.6l-2.9-7h2l2.3,5.7c1.1,0.1,1.9-0.3,2.4-0.9c0.5-0.7,0.8-1.7,0.8-3.1c0-0.8-0.1-1.5-0.2-2
				c-0.2-0.5-0.4-0.8-0.8-1C60.5,22.1,60,22,59.4,22h-0.7v-1.6h1c1.5,0,2.5,0.4,3.2,1.2c0.7,0.8,1,2,1,3.6c0,1.9-0.4,3.3-1.3,4.3
				c-0.8,0.9-2,1.4-3.4,1.4C58.4,30.9,57.7,30.8,57.3,30.6z"/>
			<path class="st2" d="M65.5,21.9h1.8v0.9H70v1.6h-4.5V21.9z M65.5,27.1h1.8V28H70v1.6h-4.5V27.1z"/>
			<path class="st2" d="M71.5,30.3v-1.6c0.9,0.4,1.7,0.6,2.6,0.6s1.6-0.1,2.1-0.4c0.5-0.2,0.9-0.6,1.1-1.2c0.2-0.5,0.3-1.2,0.3-2.1
				c0-1.3-0.3-2.3-0.8-2.8c-0.5-0.6-1.4-0.8-2.7-0.8c-0.9,0-1.7,0.2-2.6,0.6v-1.7c0.9-0.4,1.9-0.6,3-0.6c1.7,0,2.9,0.5,3.8,1.3
				s1.3,2.2,1.3,4s-0.4,3.1-1.2,4c-0.8,0.9-2.1,1.3-3.8,1.3C73.4,30.9,72.4,30.7,71.5,30.3z"/>
			<path class="st2" d="M81.1,21.9h1.8v0.9h2.8l-0.1,1.5h-4.5C81.1,24.3,81.1,21.9,81.1,21.9z M81.1,27.1h1.8V28h2.8l-0.1,1.5h-4.5
				C81.1,29.5,81.1,27.1,81.1,27.1z"/>
		</g>
	</g>
</g>
<g>
	<g>
		<path class="st3" d="M14.5,24.4c0-1.3,0.4-2.2,1.1-2.9s1.9-1,3.5-1s2.7,0.3,3.5,1c0.8,0.7,1.1,1.7,1.1,2.9v6.5h-2.1v-6.7
			c0-1.4-0.8-2.1-2.5-2.1c-0.9,0-1.5,0.2-1.9,0.5c-0.4,0.3-0.6,0.9-0.6,1.6v2.1c0.6-0.5,1.2-0.7,2-0.7h1.2l0.1,1.7h-1.4
			c-0.8,0-1.4,0.2-1.9,0.6v3h-2.1V24.4z"/>
		<path class="st3" d="M30.1,24.4c0-0.6-0.1-1-0.2-1.3c-0.1-0.3-0.3-0.6-0.7-0.7c-0.3-0.2-0.8-0.3-1.4-0.3c-0.4,0-0.8,0-1.3,0.1
			c-0.5,0.1-0.9,0.2-1.3,0.4V21c0.4-0.2,0.9-0.3,1.4-0.4c0.5-0.1,1.1-0.2,1.6-0.2c1.4,0,2.4,0.3,3,0.9c0.6,0.6,0.9,1.5,0.9,2.8v6.7
			h-2.1V24.4z"/>
		<path class="st3" d="M35.5,30.1c-0.6-0.7-0.9-1.6-0.9-2.7v-6.7h2.1v6.6c0,0.8,0.2,1.3,0.5,1.7c0.3,0.3,0.9,0.5,1.6,0.5
			c0.5,0,1.1-0.1,1.6-0.3c0.5-0.2,0.9-0.5,1.3-0.9v-7.6h2.1v10.3h-1.9l-0.1-1.1c-1,0.9-2.2,1.3-3.6,1.3
			C36.9,31.1,36.1,30.8,35.5,30.1z"/>
		<path class="st3" d="M49.9,24.4c0-0.6-0.1-1-0.2-1.3c-0.1-0.3-0.3-0.6-0.7-0.7c-0.3-0.2-0.8-0.3-1.4-0.3c-0.4,0-0.8,0-1.3,0.1
			c-0.5,0.1-0.9,0.2-1.3,0.4V21c0.4-0.2,0.9-0.3,1.4-0.4c0.5-0.1,1.1-0.2,1.6-0.2c1.4,0,2.4,0.3,3,0.9s0.9,1.5,0.9,2.8v6.7h-2.1
			V24.4z"/>
		<path class="st3" d="M54.5,27.2c0-1.3,0.5-2.1,1.5-2.4L54,24.3v-2.1c0.6-0.5,1.3-0.9,2.1-1.3c0.8-0.3,1.8-0.5,2.8-0.5
			c1.6,0,2.7,0.3,3.5,1c0.8,0.6,1.2,1.7,1.2,3.1v6.4h-2.1v-6.4c0-0.9-0.2-1.5-0.6-1.8c-0.4-0.3-1.1-0.5-2.1-0.5
			c-0.6,0-1.2,0.1-1.8,0.3c-0.6,0.2-1,0.4-1.3,0.7v0.3l2.2,0.6v1.4c-0.5,0.1-0.8,0.3-1,0.6c-0.2,0.3-0.3,0.7-0.3,1.3v3.7h-2.1V27.2z
			"/>
		<path class="st3" d="M69.9,24.4c0-0.6-0.1-1-0.2-1.3c-0.1-0.3-0.3-0.6-0.7-0.7c-0.3-0.2-0.8-0.3-1.4-0.3c-0.4,0-0.8,0-1.3,0.1
			c-0.5,0.1-0.9,0.2-1.3,0.4V21c0.4-0.2,0.9-0.3,1.4-0.4c0.5-0.1,1.1-0.2,1.6-0.2c1.4,0,2.4,0.3,3,0.9s0.9,1.5,0.9,2.8v6.7h-2.1
			V24.4z"/>
		<path class="st3" d="M73.8,30.5v-1.6c0.9,0.4,1.7,0.6,2.6,0.6c0.9,0,1.6-0.1,2.1-0.4c0.5-0.2,0.9-0.6,1.1-1.2
			c0.2-0.5,0.3-1.2,0.3-2.1c0-1.3-0.3-2.3-0.8-2.8c-0.5-0.6-1.4-0.8-2.7-0.8c-0.9,0-1.7,0.2-2.6,0.6V21c0.9-0.4,1.9-0.6,3-0.6
			c1.7,0,2.9,0.4,3.8,1.3s1.3,2.2,1.3,4s-0.4,3.1-1.2,4s-2.1,1.3-3.8,1.3C75.7,31.1,74.7,30.9,73.8,30.5z"/>
		<path class="st3" d="M79.3,15.9h2.1v3.1h-2.1V15.9z"/>
		<path class="st3" d="M87.6,24.4c0-0.6-0.1-1-0.2-1.3c-0.1-0.3-0.3-0.6-0.7-0.7c-0.3-0.2-0.8-0.3-1.4-0.3c-0.4,0-0.8,0-1.3,0.1
			c-0.5,0.1-0.9,0.2-1.3,0.4V21c0.4-0.2,0.9-0.3,1.4-0.4c0.5-0.1,1.1-0.2,1.6-0.2c1.4,0,2.4,0.3,3,0.9s0.9,1.5,0.9,2.8v6.7h-2.1
			V24.4z"/>
	</g>
</g>
</svg>
