<?xml version="1.0" encoding="utf-8"?>
<!-- Generator: Adobe Illustrator 25.0.1, SVG Export Plug-In . SVG Version: 6.00 Build 0)  -->
<svg version="1.1" id="Layer_1" xmlns="http://www.w3.org/2000/svg" xmlns:xlink="http://www.w3.org/1999/xlink" x="0px" y="0px"
	 viewBox="0 0 95.7 125.8" style="enable-background:new 0 0 95.7 125.8;" xml:space="preserve">
<style type="text/css">
	.st0{fill:#96BF4E;}
	.st1{enable-background:new    ;}
	.st2{fill:#FFFFFF;}
</style>
<g id="Layer_2_1_">
	<g id="Layer_1-2">
		<path class="st0" d="M95.7,125.8V31.6H64.6c-6.5,0-11.8-5.3-11.8-11.8v-7.9C52.7,5.3,47.5,0,40.9,0H0v125.8H95.7z"/>
		<g class="st1">
			<path class="st2" d="M16.5,85.8v-9.6h2.4v9c0,0.3,0.1,0.6,0.2,0.8s0.4,0.2,0.7,0.2h1V88h-2.1C17.2,88,16.5,87.3,16.5,85.8z"/>
			<path class="st2" d="M23.4,83.7c0-1.5,0.6-2.4,1.7-2.7l-2.4-0.6v-2.5c0.7-0.6,1.5-1.1,2.5-1.5c1-0.4,2.1-0.6,3.3-0.6
				c1.8,0,3.2,0.4,4.1,1.1c0.9,0.8,1.4,2,1.4,3.6V88h-2.4v-7.5c0-1-0.2-1.7-0.7-2.1c-0.5-0.4-1.3-0.6-2.4-0.6c-0.7,0-1.4,0.1-2,0.3
				c-0.6,0.2-1.1,0.5-1.5,0.8v0.4l2.5,0.6v1.6c-0.6,0.1-1,0.4-1.2,0.7c-0.2,0.3-0.4,0.8-0.4,1.5V88h-2.4V83.7z"/>
			<path class="st2" d="M24.8,72.6H32v-1.8h2v3.5h-9.2L24.8,72.6z"/>
			<path class="st2" d="M37.7,87.4c-1-0.6-1.5-1.5-1.5-2.8c0-0.6,0.1-1.1,0.4-1.6c0.3-0.5,0.7-0.8,1.2-1.1c-0.5-0.2-0.9-0.5-1.2-0.9
				c-0.3-0.4-0.4-1-0.4-1.6c0-1.1,0.3-2,1-2.6c0.7-0.6,1.6-0.9,2.7-0.9c0.8,0,1.4,0.1,1.9,0.3V78c-0.4-0.1-0.9-0.2-1.5-0.2
				c-1.2,0-1.9,0.5-1.9,1.5c0,1,0.7,1.6,2.1,1.6H42l0.1,1.8h-1.4c-1.4,0-2.1,0.6-2.1,1.8c0,0.6,0.3,1.1,0.8,1.4
				c0.5,0.3,1.3,0.5,2.3,0.5c1,0,1.8-0.2,2.3-0.6c0.5-0.4,0.8-1.1,0.8-1.9v-7.7h2.4v7.4c0,1.6-0.4,2.8-1.3,3.6
				c-0.9,0.8-2.2,1.2-4,1.2C40.1,88.3,38.7,88,37.7,87.4z"/>
			<path class="st2" d="M49.3,87.6v-1.9c1,0.4,2,0.6,3,0.6c1,0,1.8-0.1,2.4-0.4c0.6-0.3,1-0.7,1.3-1.3s0.4-1.5,0.4-2.5
				c0-1.5-0.3-2.6-0.9-3.3c-0.6-0.6-1.7-1-3.1-1c-1,0-2,0.2-3,0.6v-1.9c1-0.4,2.2-0.7,3.5-0.7c2,0,3.4,0.5,4.4,1.6
				c1,1,1.5,2.6,1.5,4.6s-0.5,3.6-1.4,4.6s-2.4,1.6-4.4,1.6C51.5,88.3,50.4,88,49.3,87.6z"/>
			<path class="st2" d="M62.3,87.4c-0.3-0.5-0.5-1.2-0.5-2.1v-7.4c0-0.9-0.2-1.6-0.5-2.1c-0.4-0.5-0.9-0.9-1.7-1.2v-1.8h6.6v1.9
				h-3.5c0.6,0.3,1,0.8,1.3,1.3c0.3,0.5,0.4,1.2,0.4,2.2v7.1c0,0.4,0.1,0.7,0.2,0.8s0.4,0.2,0.8,0.2h1V88h-2.1
				C63.2,88,62.6,87.8,62.3,87.4z"/>
			<path class="st2" d="M68.8,86.8c-0.9-1-1.3-2.5-1.3-4.5c0-2,0.3-3.6,1-4.7c0.7-1.1,1.7-1.6,2.9-1.6c0.6,0,1,0.1,1.4,0.3
				c0.4,0.2,0.7,0.5,1,0.9c0.3-0.3,0.7-0.6,1.2-0.8c0.5-0.2,1-0.3,1.5-0.3c0.9,0,1.6,0.3,2.1,0.8c0.5,0.6,0.7,1.3,0.7,2.4v9H77v-8.6
				c0-0.6-0.1-1-0.2-1.2c-0.2-0.2-0.5-0.4-0.9-0.4c-0.3,0-0.6,0.1-0.8,0.3c-0.2,0.2-0.4,0.4-0.5,0.8h-1.3c-0.2-0.4-0.4-0.6-0.6-0.8
				c-0.2-0.2-0.5-0.2-0.8-0.2c-0.7,0-1.2,0.4-1.5,1.1c-0.3,0.8-0.4,1.8-0.4,3.3c0,1.5,0.2,2.5,0.7,3.1c0.5,0.6,1.2,1,2.2,1
				c0.7,0,1.2-0.1,1.5-0.2V88c-0.5,0.2-1.1,0.3-1.9,0.3C70.9,88.3,69.7,87.8,68.8,86.8z"/>
		</g>
	</g>
</g>
</svg>
