<?xml version="1.0" encoding="utf-8"?>
<!-- Generator: Adobe Illustrator 25.0.1, SVG Export Plug-In . SVG Version: 6.00 Build 0)  -->
<svg version="1.1" id="Layer_1" xmlns="http://www.w3.org/2000/svg" xmlns:xlink="http://www.w3.org/1999/xlink" x="0px" y="0px"
	 viewBox="0 0 97.6 84.3" style="enable-background:new 0 0 97.6 84.3;" xml:space="preserve">
<style type="text/css">
	.st0{fill:#970000;}
	.st1{enable-background:new    ;}
	.st2{fill:#FFFFFF;}
</style>
<g id="Layer_2_1_">
	<g id="Layer_1-2">
		<rect class="st0" width="97.6" height="84.3"/>
		<g class="st1">
			<path class="st2" d="M23.8,47.4c-0.3-0.4-0.4-1-0.4-1.8v-6.4c0-0.8-0.2-1.4-0.5-1.8c-0.3-0.4-0.8-0.8-1.5-1v-1.6h5.6v1.6h-3
				c0.5,0.3,0.9,0.7,1.1,1.1s0.3,1.1,0.3,1.9v6.1c0,0.3,0.1,0.6,0.2,0.7c0.1,0.1,0.3,0.2,0.7,0.2h0.9V48h-1.8
				C24.6,48,24.1,47.8,23.8,47.4z"/>
			<path class="st2" d="M28.7,37.7h1.9l0.1,1.1c1-0.9,2.2-1.3,3.6-1.3c1.1,0,1.9,0.3,2.5,1c0.6,0.6,0.9,1.6,0.9,2.7V48h-2.1v-6.7
				c0-0.7-0.2-1.3-0.5-1.6c-0.3-0.3-0.9-0.5-1.6-0.5c-0.5,0-1.1,0.1-1.6,0.3c-0.5,0.2-0.9,0.5-1.3,0.9V48h-2.1V37.7z"/>
			<path class="st2" d="M41,47.4c-0.8-0.5-1.3-1.3-1.3-2.4c0-0.5,0.1-1,0.4-1.4s0.6-0.7,1.1-0.9c-0.4-0.2-0.8-0.4-1-0.8
				c-0.2-0.4-0.4-0.8-0.4-1.4c0-0.9,0.3-1.7,0.9-2.2s1.4-0.8,2.3-0.8c0.6,0,1.2,0.1,1.7,0.2v1.6c-0.4-0.1-0.8-0.2-1.3-0.2
				c-1.1,0-1.6,0.4-1.6,1.3c0,0.9,0.6,1.3,1.8,1.3h1.1l0.1,1.5h-1.2c-1.2,0-1.8,0.5-1.8,1.6c0,0.5,0.2,0.9,0.6,1.2s1.1,0.4,2,0.4
				s1.6-0.2,2-0.5c0.4-0.4,0.7-0.9,0.7-1.6v-6.6h2.1v6.4c0,1.4-0.4,2.4-1.2,3.1c-0.8,0.7-1.9,1-3.5,1C43,48.2,41.8,47.9,41,47.4z"/>
			<path class="st2" d="M55.4,41.5c0-0.6-0.1-1-0.2-1.3s-0.3-0.6-0.7-0.7c-0.3-0.2-0.8-0.3-1.4-0.3c-0.4,0-0.8,0-1.3,0.1
				c-0.5,0.1-0.9,0.2-1.3,0.4v-1.6c0.4-0.2,0.9-0.3,1.4-0.4s1.1-0.2,1.6-0.2c1.4,0,2.4,0.3,3,0.9c0.6,0.6,0.9,1.5,0.9,2.8V48h-2.1
				V41.5z"/>
			<path class="st2" d="M63.5,47.8c-0.6-0.2-1.1-0.5-1.6-1L61.7,48h-1.9V37.7h2.1v7.6c0.4,0.4,0.8,0.7,1.3,0.9
				c0.5,0.2,1,0.3,1.6,0.3c0.7,0,1.3-0.2,1.6-0.5c0.3-0.3,0.5-0.9,0.5-1.7v-6.6h2.1v6.7c0,1.2-0.3,2.1-0.9,2.7s-1.5,1-2.6,1
				C64.7,48.2,64,48,63.5,47.8z"/>
			<path class="st2" d="M71,39.2h1.8v0.9h2.8l-0.1,1.5H71V39.2z M71,44.4h1.8v1h2.8l-0.1,1.5H71V44.4z"/>
		</g>
	</g>
</g>
</svg>
