<?xml version="1.0" encoding="utf-8"?>
<!-- Generator: Adobe Illustrator 25.2.1, SVG Export Plug-In . SVG Version: 6.00 Build 0)  -->
<svg version="1.1" id="Layer_1" xmlns="http://www.w3.org/2000/svg" xmlns:xlink="http://www.w3.org/1999/xlink" x="0px" y="0px"
	 viewBox="0 0 80.8 80.2" style="enable-background:new 0 0 80.8 80.2;" xml:space="preserve">
<style type="text/css">
	.st0{fill:#6080B7;}
	.st1{display:none;fill:#FFFFFF;}
	.st2{fill:#FFFFFF;}
</style>
<g id="Layer_2_1_">
	<g id="design">
		<rect class="st0" width="80.8" height="80.2"/>
		<path class="st1" d="M19.6,45.5c-0.6-0.1-1.3-0.3-1.9-0.5v-5.3h4.1l0.2,1.6h-2.2v2.5c0.7,0.2,1.4,0.3,2.1,0.3
			c0.6,0,1.2-0.1,1.8-0.3c0.5-0.2,0.8-0.6,1-1.1c0.2-0.7,0.3-1.4,0.3-2.1c0-0.8-0.1-1.5-0.3-2.2c-0.2-0.5-0.6-1-1.2-1.2
			c-0.7-0.3-1.4-0.4-2.1-0.3c-1.2,0-2.3,0.2-3.4,0.5v-1.6c0.6-0.2,1.2-0.3,1.8-0.4c0.7-0.1,1.4-0.2,2.1-0.2c1.4-0.1,2.8,0.4,3.9,1.3
			c0.9,1.1,1.3,2.6,1.2,4c0.1,1.4-0.3,2.9-1.2,4c-1,1-2.4,1.4-3.9,1.3C21.1,45.7,20.4,45.6,19.6,45.5z"/>
		<path class="st1" d="M28.6,36.7h1.8v0.9h2.8L33,39.2h-4.4V36.7z M28.6,41.9h1.8v1h2.8L33,44.4h-4.4V41.9z"/>
		<path class="st1" d="M35.1,39c-0.1-1.1,0.3-2.2,1.1-2.9c1-0.8,2.3-1.1,3.5-1c1.2-0.1,2.5,0.2,3.5,1c0.8,0.8,1.2,1.8,1.1,2.9v6.5
			h-2.1v-6.7c0-1.4-0.8-2.1-2.5-2.1c-0.7,0-1.4,0.1-1.9,0.5c-0.4,0.4-0.7,1-0.6,1.6v2.1c0.6-0.5,1.3-0.7,2-0.7h1.2l0.1,1.7h-1.4
			c-0.7,0-1.4,0.2-1.9,0.7v3h-2.1V39z"/>
		<path class="st1" d="M36.5,32.2h7.8v1.4h-7.9L36.5,32.2z"/>
		<path class="st1" d="M47.5,44.4c-0.8-1.1-1.2-2.5-1.1-3.9c-0.1-1.4,0.2-2.8,0.9-4c0.5-0.9,1.5-1.5,2.5-1.5c0.4,0,0.8,0.1,1.2,0.2
			c0.3,0.2,0.6,0.4,0.8,0.7c0.3-0.3,0.6-0.5,1-0.7c0.4-0.2,0.9-0.3,1.4-0.3c0.7,0,1.4,0.2,1.8,0.7c0.4,0.6,0.7,1.3,0.6,2v7.7h-2.1
			v-7.3c0-0.4,0-0.8-0.2-1.1c-0.2-0.2-0.5-0.4-0.8-0.3c-0.3,0-0.5,0.1-0.7,0.2c-0.2,0.2-0.4,0.4-0.5,0.7h-1.1
			c-0.1-0.3-0.3-0.5-0.5-0.7c-0.2-0.1-0.4-0.2-0.7-0.2c-0.6,0-1.2,0.4-1.3,1c-0.3,0.9-0.4,1.9-0.4,2.8c-0.1,0.9,0.1,1.9,0.6,2.7
			c0.5,0.6,1.2,0.9,1.9,0.8c0.4,0,0.9,0,1.3-0.2v1.6c-0.5,0.2-1.1,0.2-1.7,0.2C49.4,45.7,48.3,45.3,47.5,44.4z"/>
		<path class="st1" d="M58.6,36.7h1.8v0.9h2.8l-0.1,1.5h-4.5V36.7z M58.6,41.9h1.8v1h2.8l-0.1,1.5h-4.5V41.9z"/>
	</g>
</g>
<g>
	<path class="st2" d="M19.8,45.5c-0.7-0.1-1.3-0.3-1.9-0.6v-5.3H22l0.1,1.6h-2.2v2.5c0.6,0.2,1.3,0.3,2.1,0.3c0.8,0,1.4-0.1,1.8-0.4
		s0.8-0.6,1-1.1c0.2-0.5,0.3-1.2,0.3-2.1c0-0.9-0.1-1.7-0.3-2.2c-0.2-0.5-0.6-0.9-1.1-1.1c-0.5-0.2-1.2-0.3-2.2-0.3
		c-1.2,0-2.4,0.2-3.4,0.5v-1.6c0.5-0.2,1.1-0.3,1.8-0.4c0.7-0.1,1.4-0.2,2.1-0.2c1.8,0,3,0.4,3.9,1.3c0.8,0.9,1.2,2.2,1.2,4
		c0,1.8-0.4,3.1-1.2,4c-0.8,0.9-2.1,1.3-3.8,1.3C21.2,45.7,20.5,45.6,19.8,45.5z"/>
	<path class="st2" d="M32.9,39.1c0-0.6-0.1-1-0.2-1.3c-0.1-0.3-0.3-0.6-0.7-0.7c-0.3-0.2-0.8-0.3-1.4-0.3c-0.4,0-0.8,0-1.3,0.1
		c-0.5,0.1-0.9,0.2-1.3,0.4v-1.6c0.4-0.2,0.9-0.3,1.4-0.4c0.5-0.1,1.1-0.2,1.6-0.2c1.4,0,2.4,0.3,3,0.9s0.9,1.5,0.9,2.8v6.7h-2.1
		V39.1z"/>
	<path class="st2" d="M37.4,39c0-1.3,0.4-2.2,1.1-2.9c0.8-0.7,1.9-1,3.5-1c1.6,0,2.7,0.3,3.5,1c0.8,0.7,1.1,1.7,1.1,2.9v6.5h-2.1
		v-6.7c0-1.4-0.8-2.1-2.5-2.1c-0.9,0-1.5,0.2-1.9,0.5c-0.4,0.3-0.6,0.9-0.6,1.6v2.1c0.6-0.5,1.2-0.7,2-0.7h1.2l0.1,1.7h-1.4
		c-0.8,0-1.4,0.2-1.9,0.6v3h-2.1V39z"/>
	<path class="st2" d="M38.8,32.3h7.8v1.4h-7.9L38.8,32.3z"/>
	<path class="st2" d="M49.8,44.4c-0.8-0.9-1.1-2.2-1.1-3.9c0-1.8,0.3-3.1,0.9-4.1s1.4-1.4,2.5-1.4c0.5,0,0.9,0.1,1.2,0.2
		s0.6,0.4,0.8,0.7c0.3-0.3,0.6-0.5,1-0.7s0.9-0.3,1.3-0.3c0.8,0,1.4,0.2,1.8,0.7c0.4,0.5,0.6,1.2,0.6,2v7.7h-2.1v-7.4
		c0-0.5-0.1-0.9-0.2-1.1c-0.1-0.2-0.4-0.3-0.8-0.3c-0.3,0-0.5,0.1-0.7,0.2s-0.4,0.4-0.5,0.7h-1.1c-0.2-0.3-0.3-0.5-0.5-0.7
		c-0.2-0.1-0.4-0.2-0.7-0.2c-0.6,0-1.1,0.3-1.3,1c-0.2,0.6-0.4,1.6-0.4,2.8c0,1.3,0.2,2.2,0.6,2.7c0.4,0.5,1.1,0.8,1.9,0.8
		c0.6,0,1-0.1,1.3-0.2v1.6c-0.4,0.2-1,0.2-1.7,0.2C51.6,45.7,50.6,45.3,49.8,44.4z"/>
	<path class="st2" d="M60.9,36.8h1.8v0.9h2.8l-0.1,1.5h-4.5V36.8z M60.9,41.9h1.8v0.9h2.8l-0.1,1.5h-4.5V41.9z"/>
</g>
</svg>
