<?xml version="1.0" encoding="utf-8"?>
<!-- Generator: Adobe Illustrator 25.2.1, SVG Export Plug-In . SVG Version: 6.00 Build 0)  -->
<svg version="1.1" id="Layer_1" xmlns="http://www.w3.org/2000/svg" xmlns:xlink="http://www.w3.org/1999/xlink" x="0px" y="0px"
	 viewBox="0 0 95.7 164.9" style="enable-background:new 0 0 95.7 164.9;" xml:space="preserve">
<style type="text/css">
	.st0{fill:#970000;}
	.st1{display:none;enable-background:new    ;}
	.st2{display:inline;fill:#FFFFFF;}
	.st3{fill:#FFFFFF;}
</style>
<g id="Layer_2_1_">
	<g id="Layer_1-2">
		<path class="st0" d="M0,0v164.7h93.9c0.6,0,1.2,0.1,1.8,0.2V0H0z"/>
		<g class="st1">
			<path class="st2" d="M13.9,85.8v-9.6h2.4v9c0,0.3,0.1,0.6,0.2,0.8c0.2,0.2,0.4,0.2,0.7,0.2h1V88h-2.1
				C14.7,88,13.9,87.3,13.9,85.8z"/>
			<path class="st2" d="M22.5,88c-0.8-0.2-1.6-0.4-2.2-0.6v-6.1H25l0.1,1.8h-2.5V86c0.7,0.3,1.5,0.4,2.4,0.4s1.6-0.1,2.1-0.4
				s0.9-0.7,1.1-1.3c0.2-0.6,0.4-1.4,0.4-2.5s-0.1-2-0.4-2.6s-0.7-1.1-1.3-1.3c-0.6-0.3-1.4-0.4-2.5-0.4c-1.4,0-2.8,0.2-4,0.6v-1.9
				c0.6-0.2,1.3-0.4,2.1-0.5c0.8-0.1,1.6-0.2,2.4-0.2c0.7,0,1.4,0.1,2.1,0.2h4.6l0.1,1.9h-1.8c0.7,0.9,1.1,2.3,1.1,4.1
				c0,2-0.5,3.6-1.4,4.6c-1,1-2.4,1.5-4.5,1.5C24.2,88.3,23.4,88.2,22.5,88z"/>
			<path class="st2" d="M22.1,72.6h7.1v-1.8h2v3.5H22L22.1,72.6z"/>
			<path class="st2" d="M35,87.4c-1-0.6-1.5-1.5-1.5-2.8c0-0.6,0.1-1.1,0.4-1.6c0.3-0.5,0.7-0.8,1.2-1.1c-0.5-0.2-0.9-0.5-1.2-0.9
				s-0.4-1-0.4-1.6c0-1.1,0.3-2,1-2.6s1.6-0.9,2.7-0.9c0.8,0,1.4,0.1,1.9,0.3V78c-0.4-0.1-0.9-0.2-1.5-0.2c-1.2,0-1.9,0.5-1.9,1.5
				s0.7,1.6,2.1,1.6h1.3l0.1,1.8h-1.4c-1.4,0-2.1,0.6-2.1,1.8c0,0.6,0.2,1.1,0.8,1.4c0.5,0.3,1.3,0.5,2.3,0.5s1.8-0.2,2.3-0.6
				s0.8-1.1,0.8-1.9v-7.7h2.4v7.4c0,1.6-0.4,2.8-1.3,3.6c-0.9,0.8-2.2,1.2-4,1.2C37.3,88.3,35.9,88,35,87.4z"/>
			<path class="st2" d="M46.6,87.6v-1.9c1,0.4,2,0.6,3,0.6s1.8-0.1,2.4-0.4c0.6-0.3,1-0.7,1.3-1.3s0.4-1.5,0.4-2.5
				c0-1.5-0.3-2.6-0.9-3.3c-0.6-0.6-1.7-1-3.1-1c-1,0-2,0.2-3,0.6v-1.9c1-0.4,2.2-0.7,3.5-0.7c2,0,3.4,0.5,4.4,1.6
				c1,1,1.5,2.6,1.5,4.6s-0.5,3.6-1.4,4.6s-2.4,1.6-4.4,1.6C48.8,88.3,47.6,88,46.6,87.6z"/>
			<path class="st2" d="M59.5,87.4c-0.3-0.5-0.5-1.2-0.5-2.1v-7.4c0-0.9-0.2-1.6-0.5-2.1c-0.4-0.5-0.9-0.9-1.7-1.2v-1.8h6.6v1.9
				h-3.5c0.6,0.3,1,0.8,1.3,1.3s0.4,1.2,0.4,2.2v7.1c0,0.4,0.1,0.7,0.2,0.8c0.1,0.1,0.4,0.2,0.8,0.2h1V88h-2.1
				C60.4,88,59.8,87.8,59.5,87.4z"/>
			<path class="st2" d="M67.6,88l-3.4-8.2h2.3l2.7,6.6c1.3,0.1,2.2-0.3,2.8-1.1s0.9-2,0.9-3.6c0-1-0.1-1.7-0.3-2.3
				c-0.2-0.5-0.5-0.9-0.9-1.2c-0.4-0.2-1-0.3-1.7-0.3h-0.8v-1.8h1.1c1.7,0,2.9,0.5,3.7,1.4c0.8,0.9,1.2,2.3,1.2,4.2
				c0,2.2-0.5,3.9-1.5,5s-2.3,1.6-4,1.6C68.9,88.3,68.1,88.2,67.6,88z"/>
			<path class="st2" d="M77.2,77.9h2.1V79h3.3l-0.1,1.8h-5.2v-2.9H77.2z M77.2,83.9h2.1V85h3.3l-0.1,1.8h-5.2v-2.9H77.2z"/>
		</g>
	</g>
</g>
<g>
	<path class="st3" d="M17.4,84.9v-8.3h2.1v7.8c0,0.3,0.1,0.5,0.2,0.6s0.3,0.2,0.6,0.2h0.9v1.6h-1.8C18.1,86.9,17.4,86.2,17.4,84.9z"
		/>
	<path class="st3" d="M24.8,86.9c-0.7-0.1-1.3-0.3-1.9-0.6V81H27l0.1,1.6h-2.2v2.5c0.6,0.2,1.3,0.3,2.1,0.3c0.8,0,1.4-0.1,1.8-0.4
		s0.8-0.6,1-1.1c0.2-0.5,0.3-1.2,0.3-2.1c0-1-0.1-1.7-0.3-2.2c-0.2-0.5-0.6-0.9-1.1-1.1c-0.5-0.2-1.2-0.3-2.2-0.3
		c-1.2,0-2.4,0.2-3.4,0.5V77c0.5-0.2,1.1-0.3,1.8-0.4s1.4-0.2,2.1-0.2c0.6,0,1.2,0.1,1.8,0.2h4l-0.1,1.6h-1.5c0.6,0.8,0.9,2,0.9,3.6
		c0,1.8-0.4,3.1-1.2,4c-0.8,0.9-2.1,1.3-3.8,1.3C26.2,87.1,25.5,87,24.8,86.9z"/>
	<path class="st3" d="M24.4,73.6h6.1v-1.6h1.7v3h-7.9L24.4,73.6z"/>
	<path class="st3" d="M35.5,86.3c-0.8-0.5-1.3-1.3-1.3-2.4c0-0.5,0.1-1,0.4-1.4s0.6-0.7,1.1-0.9c-0.4-0.2-0.8-0.4-1-0.8
		s-0.4-0.8-0.4-1.4c0-1,0.3-1.7,0.9-2.2c0.6-0.5,1.4-0.8,2.3-0.8c0.6,0,1.2,0.1,1.7,0.2v1.6c-0.4-0.1-0.8-0.2-1.3-0.2
		c-1.1,0-1.6,0.4-1.6,1.3c0,0.9,0.6,1.3,1.8,1.3h1.1l0.1,1.5H38c-1.2,0-1.8,0.5-1.8,1.6c0,0.5,0.2,0.9,0.6,1.2
		c0.4,0.3,1.1,0.4,2,0.4c0.9,0,1.6-0.2,2-0.5c0.4-0.4,0.7-0.9,0.7-1.6v-6.6h2.1V83c0,1.4-0.4,2.4-1.2,3.1c-0.8,0.7-1.9,1-3.5,1
		C37.5,87.1,36.3,86.8,35.5,86.3z"/>
	<path class="st3" d="M45.4,86.5v-1.6c0.9,0.4,1.7,0.6,2.6,0.6c0.9,0,1.6-0.1,2.1-0.4c0.5-0.2,0.9-0.6,1.1-1.2
		c0.2-0.5,0.3-1.2,0.3-2.1c0-1.3-0.3-2.3-0.8-2.8c-0.5-0.6-1.4-0.8-2.7-0.8c-0.9,0-1.7,0.2-2.6,0.6V77c0.9-0.4,1.9-0.6,3-0.6
		c1.7,0,2.9,0.5,3.8,1.3c0.8,0.9,1.3,2.2,1.3,4s-0.4,3.1-1.2,4s-2.1,1.3-3.8,1.3C47.3,87.1,46.3,86.9,45.4,86.5z"/>
	<path class="st3" d="M56.5,86.3c-0.3-0.4-0.4-1-0.4-1.8v-6.4c0-0.8-0.2-1.4-0.5-1.8s-0.8-0.8-1.5-1v-1.6h5.6v1.6h-3
		c0.5,0.3,0.9,0.7,1.1,1.1c0.2,0.4,0.3,1.1,0.3,1.9v6.1c0,0.3,0.1,0.6,0.2,0.7c0.1,0.1,0.3,0.2,0.7,0.2h0.9v1.6h-1.8
		C57.3,86.9,56.8,86.7,56.5,86.3z"/>
	<path class="st3" d="M61.5,83.2c0-1.3,0.5-2.1,1.5-2.4L61,80.3v-2.1c0.6-0.5,1.3-0.9,2.1-1.3c0.8-0.3,1.8-0.5,2.8-0.5
		c1.6,0,2.7,0.3,3.5,1s1.2,1.7,1.2,3.1v6.4h-2.1v-6.4c0-0.9-0.2-1.5-0.6-1.8c-0.4-0.3-1.1-0.5-2.1-0.5c-0.6,0-1.2,0.1-1.8,0.3
		c-0.6,0.2-1,0.4-1.3,0.7v0.3l2.2,0.6v1.4c-0.5,0.1-0.8,0.3-1,0.6c-0.2,0.3-0.3,0.7-0.3,1.3v3.7h-2.1V83.2z"/>
	<path class="st3" d="M72.6,78.1h1.8v0.9h2.8l-0.1,1.5h-4.5V78.1z M72.6,83.3h1.8v1h2.8l-0.1,1.5h-4.5V83.3z"/>
</g>
</svg>
