<?xml version="1.0" encoding="utf-8"?>
<!-- Generator: Adobe Illustrator 25.0.1, SVG Export Plug-In . SVG Version: 6.00 Build 0)  -->
<svg version="1.1" id="Layer_1" xmlns="http://www.w3.org/2000/svg" xmlns:xlink="http://www.w3.org/1999/xlink" x="0px" y="0px"
	 viewBox="0 0 115.5 213.6" style="enable-background:new 0 0 115.5 213.6;" xml:space="preserve">
<style type="text/css">
	.st0{fill:#20A846;}
	.st1{enable-background:new    ;}
	.st2{fill:#FFFFFF;}
</style>
<g id="Layer_2_1_">
	<g id="Layer_1-2">
		<polygon class="st0" points="0,213.6 115.6,213.6 115.6,0 68.4,0 68.4,122.4 0,122.4 		"/>
		<g class="st1">
			<path class="st2" d="M46.4,170.3c0-1.3,0.5-2.1,1.5-2.4l-2.1-0.5v-2.1c0.6-0.5,1.3-0.9,2.1-1.3c0.8-0.3,1.8-0.5,2.8-0.5
				c1.6,0,2.7,0.3,3.5,1c0.8,0.6,1.2,1.7,1.2,3.1v6.4h-2.1v-6.4c0-0.9-0.2-1.5-0.6-1.8c-0.4-0.3-1.1-0.5-2.1-0.5
				c-0.6,0-1.2,0.1-1.8,0.3c-0.6,0.2-1,0.4-1.3,0.7v0.3l2.2,0.6v1.4c-0.5,0.1-0.8,0.3-1,0.6c-0.2,0.3-0.3,0.7-0.3,1.3v3.7h-2.1
				V170.3z"/>
			<path class="st2" d="M47.7,160.8h7.8v1.4h-7.9L47.7,160.8z"/>
			<path class="st2" d="M57.4,163.8h2l1.5,7.3l1.9-5.9v-1.5h1.5l2.1,7.3l2.1-10.4h2L67.5,174h-1.9l-1.9-6.5l-2.1,6.5h-1.9
				L57.4,163.8z"/>
			<path class="st2" d="M67.5,176.5h-1.2l0.1-1.3h2.9v3.7h-1.8V176.5z"/>
		</g>
	</g>
</g>
</svg>
