<?xml version="1.0" encoding="utf-8"?>
<!-- Generator: Adobe Illustrator 25.2.1, SVG Export Plug-In . SVG Version: 6.00 Build 0)  -->
<svg version="1.1" id="Layer_1" xmlns="http://www.w3.org/2000/svg" xmlns:xlink="http://www.w3.org/1999/xlink" x="0px" y="0px"
	 viewBox="0 0 85.8 207.1" style="enable-background:new 0 0 85.8 207.1;" xml:space="preserve">
<style type="text/css">
	.st0{fill:#4CB19E;}
	.st1{display:none;enable-background:new    ;}
	.st2{display:inline;fill:#FFFFFF;}
	.st3{fill:#FFFFFF;}
</style>
<g id="Layer_2_1_">
	<g id="Layer_1-2">
		<polygon class="st0" points="85.8,0 0,0 0,207.1 55,207.1 55,92 85.8,92 		"/>
		<g class="st1">
			<path class="st2" d="M16,54.2c-0.6-0.7-0.9-1.6-0.9-2.7v-6.7h2.1v6.6c0,0.8,0.2,1.3,0.5,1.7c0.3,0.3,0.9,0.5,1.6,0.5
				c0.5,0,1.1-0.1,1.6-0.3s0.9-0.5,1.3-0.9v-7.6h2.1V55h-1.9l-0.1-1.1c-1,0.9-2.2,1.3-3.6,1.3C17.5,55.2,16.6,54.9,16,54.2z"/>
			<path class="st2" d="M26.2,46.3H28v0.9h2.8l-0.1,1.5h-4.5C26.2,48.7,26.2,46.3,26.2,46.3z M26.2,51.4H28v1h2.8l-0.1,1.5h-4.5
				C26.2,53.9,26.2,51.4,26.2,51.4z"/>
			<path class="st2" d="M34.9,55L32,48h2l2.3,5.7c1.1,0.1,1.9-0.3,2.4-0.9c0.5-0.7,0.8-1.7,0.8-3.1c0-0.8-0.1-1.5-0.2-2
				c-0.2-0.5-0.4-0.8-0.8-1c-0.4-0.2-0.9-0.3-1.5-0.3h-0.7v-1.6h1c1.5,0,2.5,0.4,3.2,1.2s1,2,1,3.6c0,1.9-0.4,3.4-1.3,4.3
				c-0.8,0.9-2,1.4-3.4,1.4C36,55.2,35.3,55.1,34.9,55z"/>
			<path class="st2" d="M43.1,46.3h1.8v0.9h2.8l-0.1,1.5h-4.5V46.3z M43.1,51.4h1.8v1h2.8l-0.1,1.5h-4.5V51.4z"/>
			<path class="st2" d="M50.8,54.4c-0.3-0.4-0.4-1-0.4-1.8v-6.4c0-0.8-0.2-1.4-0.5-1.8c-0.3-0.4-0.8-0.8-1.5-1v-1.6H54v1.6h-3
				c0.5,0.3,0.9,0.7,1.1,1.1c0.2,0.4,0.3,1.1,0.3,1.9v6.1c0,0.3,0.1,0.6,0.2,0.7c0.1,0.1,0.3,0.2,0.7,0.2h0.9V55h-1.8
				C51.6,55,51,54.8,50.8,54.4z"/>
			<path class="st2" d="M56.5,54.2c-0.6-0.7-0.9-1.6-0.9-2.7v-6.7h2.1v6.6c0,0.8,0.2,1.3,0.5,1.7c0.3,0.3,0.9,0.5,1.6,0.5
				c0.5,0,1.1-0.1,1.6-0.3s0.9-0.5,1.3-0.9v-7.6h2.1V55h-1.9l-0.1-1.1c-1,0.9-2.2,1.3-3.6,1.3C58,55.2,57.1,54.9,56.5,54.2z"/>
			<path class="st2" d="M66.7,46.3h1.8v0.9h2.8l-0.1,1.5h-4.5C66.7,48.7,66.7,46.3,66.7,46.3z M66.7,51.4h1.8v1h2.8l-0.1,1.5h-4.5
				C66.7,53.9,66.7,51.4,66.7,51.4z"/>
		</g>
	</g>
</g>
<g>
	<path class="st3" d="M16.2,54.1c-0.6-0.7-0.9-1.6-0.9-2.7v-6.7h2.1v6.6c0,0.8,0.2,1.3,0.5,1.7c0.3,0.3,0.9,0.5,1.6,0.5
		c0.5,0,1.1-0.1,1.6-0.3s0.9-0.5,1.3-0.9v-7.6h2.1v10.3h-1.9l-0.1-1.1c-1,0.9-2.2,1.3-3.6,1.3C17.7,55.1,16.8,54.8,16.2,54.1z"/>
	<path class="st3" d="M30.7,48.4c0-0.6-0.1-1-0.2-1.3c-0.1-0.3-0.3-0.6-0.7-0.7c-0.3-0.2-0.8-0.3-1.4-0.3c-0.4,0-0.8,0-1.3,0.1
		c-0.5,0.1-0.9,0.2-1.3,0.4V45c0.4-0.2,0.9-0.3,1.4-0.4c0.5-0.1,1.1-0.2,1.6-0.2c1.4,0,2.4,0.3,3,0.9c0.6,0.6,0.9,1.5,0.9,2.8v6.7
		h-2.1V48.4z"/>
	<path class="st3" d="M35.3,51.2c0-1.3,0.5-2.1,1.5-2.4l-2.1-0.5v-2.1c0.6-0.5,1.3-0.9,2.1-1.3c0.8-0.3,1.8-0.5,2.8-0.5
		c1.6,0,2.7,0.3,3.5,1s1.2,1.7,1.2,3.1v6.4h-2.1v-6.4c0-0.9-0.2-1.5-0.6-1.8c-0.4-0.3-1.1-0.5-2.1-0.5c-0.6,0-1.2,0.1-1.8,0.3
		c-0.6,0.2-1,0.4-1.3,0.7v0.3l2.2,0.6v1.4c-0.5,0.1-0.8,0.3-1,0.6c-0.2,0.3-0.3,0.7-0.3,1.3v3.7h-2.1V51.2z"/>
	<path class="st3" d="M50.6,48.4c0-0.6-0.1-1-0.2-1.3c-0.1-0.3-0.3-0.6-0.7-0.7c-0.3-0.2-0.8-0.3-1.4-0.3c-0.4,0-0.8,0-1.3,0.1
		c-0.5,0.1-0.9,0.2-1.3,0.4V45c0.4-0.2,0.9-0.3,1.4-0.4c0.5-0.1,1.1-0.2,1.6-0.2c1.4,0,2.4,0.3,3,0.9c0.6,0.6,0.9,1.5,0.9,2.8v6.7
		h-2.1V48.4z"/>
	<path class="st3" d="M56.2,54.3c-0.3-0.4-0.4-1-0.4-1.8v-6.4c0-0.8-0.2-1.4-0.5-1.8c-0.3-0.4-0.8-0.8-1.5-1v-1.6h5.6v1.6h-3
		c0.5,0.3,0.9,0.7,1.1,1.1c0.2,0.4,0.3,1.1,0.3,1.9v6.1c0,0.3,0.1,0.6,0.2,0.7c0.1,0.1,0.3,0.2,0.7,0.2h0.9v1.6h-1.8
		C57.1,54.9,56.5,54.7,56.2,54.3z"/>
	<path class="st3" d="M62,54.1c-0.6-0.7-0.9-1.6-0.9-2.7v-6.7h2.1v6.6c0,0.8,0.2,1.3,0.5,1.7c0.3,0.3,0.9,0.5,1.6,0.5
		c0.5,0,1.1-0.1,1.6-0.3c0.5-0.2,0.9-0.5,1.3-0.9v-7.6h2.1v10.3h-1.9l-0.1-1.1c-1,0.9-2.2,1.3-3.6,1.3C63.5,55.1,62.6,54.8,62,54.1z
		"/>
	<path class="st3" d="M68.1,40h2.1v3.1h-2.1V40z"/>
</g>
</svg>
