<?xml version="1.0" encoding="utf-8"?>
<!-- Generator: Adobe Illustrator 25.2.1, SVG Export Plug-In . SVG Version: 6.00 Build 0)  -->
<svg version="1.1" id="Layer_1" xmlns="http://www.w3.org/2000/svg" xmlns:xlink="http://www.w3.org/1999/xlink" x="0px" y="0px"
	 viewBox="0 0 83 111.1" style="enable-background:new 0 0 83 111.1;" xml:space="preserve">
<style type="text/css">
	.st0{fill:#970000;}
	.st1{display:none;enable-background:new    ;}
	.st2{display:inline;fill:#FFFFFF;}
	.st3{fill:#FFFFFF;}
</style>
<g id="Layer_2_1_">
	<g id="Layer_1-2">
		<rect class="st0" width="83" height="111.1"/>
		<g class="st1">
			<path class="st2" d="M17.6,59.7c-0.6-0.2-1.1-0.5-1.6-1l-0.1,1.1H14V49.6h2.1v7.6c0.4,0.4,0.8,0.7,1.3,0.9s1,0.3,1.6,0.3
				c0.7,0,1.3-0.2,1.6-0.5c0.3-0.3,0.5-0.9,0.5-1.7v-6.6h2.1v6.7c0,1.2-0.3,2.1-0.9,2.7s-1.5,1-2.6,1C18.8,60,18.2,59.9,17.6,59.7z"
				/>
			<path class="st2" d="M15.3,46.6h7.8V48h-7.9L15.3,46.6z"/>
			<path class="st2" d="M26.3,59.2c-0.8-0.5-1.3-1.3-1.3-2.4c0-0.5,0.1-1,0.4-1.4s0.6-0.7,1.1-0.9c-0.4-0.2-0.8-0.4-1-0.8
				c-0.2-0.4-0.4-0.8-0.4-1.4c0-0.9,0.3-1.7,0.9-2.2s1.4-0.8,2.3-0.8c0.6,0,1.2,0.1,1.7,0.2v1.6c-0.4-0.1-0.8-0.2-1.3-0.2
				c-1.1,0-1.6,0.4-1.6,1.3c0,0.9,0.6,1.3,1.8,1.3H30l0.1,1.5h-1.2c-1.2,0-1.8,0.5-1.8,1.6c0,0.5,0.2,0.9,0.6,1.2s1.1,0.4,2,0.4
				s1.6-0.2,2-0.5c0.4-0.4,0.7-0.9,0.7-1.6v-6.6h2.1v6.4c0,1.4-0.4,2.4-1.2,3.1c-0.8,0.7-1.9,1-3.5,1C28.3,60,27.2,59.8,26.3,59.2z"
				/>
			<path class="st2" d="M36.5,51.1h1.8V52H41l-0.1,1.5h-4.5L36.5,51.1L36.5,51.1z M36.5,56.2h1.8v1H41l-0.1,1.5h-4.5L36.5,56.2
				L36.5,56.2z"/>
			<path class="st2" d="M44,59.1c-0.8-0.6-1.1-1.6-1.1-2.7v-0.8c0-0.4,0.1-0.8,0.4-1.2c0.2-0.4,0.6-0.9,1-1.4
				c0.3-0.4,0.5-0.7,0.6-0.9s0.2-0.4,0.2-0.5c0-0.3-0.1-0.4-0.4-0.4c-0.2,0-0.4,0.1-0.6,0.3v0.8h-1.4v-2.6H44v0.5
				c0.2-0.2,0.4-0.3,0.6-0.4c0.2-0.1,0.5-0.1,0.8-0.1c0.5,0,0.8,0.1,1.1,0.4c0.2,0.2,0.4,0.6,0.4,1.1c0,0.4-0.1,0.8-0.3,1.1
				s-0.4,0.8-0.8,1.2c-0.3,0.5-0.6,0.9-0.7,1.2c-0.2,0.3-0.2,0.6-0.2,1v0.8c0,0.7,0.2,1.2,0.6,1.5s1,0.5,1.7,0.5
				c1.6,0,2.4-0.7,2.4-2.1V55c0-0.6-0.1-1-0.3-1.2s-0.6-0.4-1.1-0.4h-0.5l0.1-1.5h0.4c0.5,0,0.9-0.1,1.1-0.4
				c0.2-0.3,0.3-0.7,0.3-1.2v-1h2.1v0.9c0,0.6-0.1,1.1-0.3,1.5s-0.5,0.7-1.1,0.9c0.5,0.2,0.9,0.5,1.1,0.9c0.2,0.4,0.3,0.9,0.3,1.5
				v1.1c0,1.2-0.4,2.2-1.2,2.8c-0.8,0.7-1.9,1-3.3,1C45.8,60,44.7,59.7,44,59.1z"/>
			<path class="st2" d="M53.7,51.1h1.8V52h2.8l-0.1,1.5h-4.5V51.1z M53.7,56.2h1.8v1h2.8l-0.1,1.5h-4.5V56.2z"/>
			<path class="st2" d="M60.4,56.1c0-1.3,0.5-2.1,1.5-2.4l-2.1-0.5v-2.1c0.6-0.5,1.3-0.9,2.1-1.3s1.8-0.5,2.8-0.5
				c1.6,0,2.7,0.3,3.5,1c0.8,0.6,1.2,1.7,1.2,3.1v6.4h-2.1v-6.4c0-0.9-0.2-1.5-0.6-1.8s-1.1-0.5-2.1-0.5c-0.6,0-1.2,0.1-1.8,0.3
				s-1,0.4-1.3,0.7v0.3l2.2,0.6v1.4c-0.5,0.1-0.8,0.3-1,0.6s-0.3,0.7-0.3,1.3V60h-2.1L60.4,56.1L60.4,56.1z"/>
			<path class="st2" d="M61.6,46.6h7.8V48h-7.9L61.6,46.6z"/>
		</g>
	</g>
</g>
<g>
	<path class="st3" d="M15.8,59.8c-0.6-0.2-1.1-0.5-1.6-1L14,59.9h-1.9V49.6h2.1v7.6c0.4,0.4,0.8,0.7,1.3,0.9c0.5,0.2,1,0.3,1.6,0.3
		c0.7,0,1.3-0.2,1.6-0.5c0.3-0.3,0.5-0.9,0.5-1.7v-6.6h2.1v6.7c0,1.2-0.3,2.1-0.9,2.7c-0.6,0.7-1.5,1-2.6,1
		C17,60.1,16.3,60,15.8,59.8z"/>
	<path class="st3" d="M13.4,46.6h7.8v1.4h-7.9L13.4,46.6z"/>
	<path class="st3" d="M24.5,59.3c-0.8-0.5-1.3-1.3-1.3-2.4c0-0.5,0.1-1,0.4-1.4s0.6-0.7,1.1-0.9c-0.4-0.2-0.8-0.4-1-0.8
		s-0.4-0.8-0.4-1.4c0-1,0.3-1.7,0.9-2.2c0.6-0.5,1.4-0.8,2.3-0.8c0.6,0,1.2,0.1,1.7,0.2v1.6c-0.4-0.1-0.8-0.2-1.3-0.2
		c-1.1,0-1.6,0.4-1.6,1.3c0,0.9,0.6,1.3,1.8,1.3h1.1l0.1,1.5H27c-1.2,0-1.8,0.5-1.8,1.6c0,0.5,0.2,0.9,0.6,1.2
		c0.4,0.3,1.1,0.4,2,0.4c0.9,0,1.6-0.2,2-0.5c0.4-0.4,0.7-0.9,0.7-1.6v-6.6h2.1V56c0,1.4-0.4,2.4-1.2,3.1c-0.8,0.7-1.9,1-3.5,1
		C26.5,60.1,25.3,59.8,24.5,59.3z"/>
	<path class="st3" d="M38.8,53.4c0-0.6-0.1-1-0.2-1.3c-0.1-0.3-0.3-0.6-0.7-0.7c-0.3-0.2-0.8-0.3-1.4-0.3c-0.4,0-0.8,0-1.3,0.1
		c-0.5,0.1-0.9,0.2-1.3,0.4V50c0.4-0.2,0.9-0.3,1.4-0.4c0.5-0.1,1.1-0.2,1.6-0.2c1.4,0,2.4,0.3,3,0.9c0.6,0.6,0.9,1.5,0.9,2.8v6.7
		h-2.1V53.4z"/>
	<path class="st3" d="M44.3,59.1c-0.8-0.6-1.1-1.6-1.1-2.7v-0.8c0-0.4,0.1-0.8,0.4-1.2c0.2-0.4,0.6-0.9,1-1.4
		c0.3-0.4,0.5-0.7,0.6-0.9c0.1-0.2,0.2-0.4,0.2-0.5c0-0.3-0.1-0.4-0.4-0.4c-0.2,0-0.4,0.1-0.6,0.3v0.8h-1.4v-2.6h1.4v0.5
		c0.2-0.2,0.4-0.3,0.6-0.4c0.2-0.1,0.5-0.1,0.8-0.1c0.5,0,0.8,0.1,1.1,0.4s0.4,0.6,0.4,1.1c0,0.4-0.1,0.8-0.3,1.1
		c-0.2,0.3-0.4,0.8-0.8,1.2c-0.3,0.5-0.6,0.9-0.7,1.2c-0.2,0.3-0.2,0.6-0.2,1v0.8c0,0.7,0.2,1.2,0.6,1.5c0.4,0.3,1,0.5,1.7,0.5
		c1.6,0,2.4-0.7,2.4-2.1v-1.3c0-0.6-0.1-1-0.3-1.2c-0.2-0.2-0.6-0.4-1.1-0.4H48l0.1-1.5h0.4c0.5,0,0.9-0.1,1.1-0.4
		c0.2-0.3,0.3-0.7,0.3-1.2v-1h2.1v0.9c0,0.6-0.1,1.1-0.3,1.5c-0.2,0.4-0.5,0.7-1.1,0.9c0.5,0.2,0.9,0.5,1.1,0.9
		c0.2,0.4,0.3,0.9,0.3,1.5v1.1c0,1.2-0.4,2.2-1.2,2.8c-0.8,0.7-1.9,1-3.3,1C46.1,60.1,45,59.8,44.3,59.1z"/>
	<path class="st3" d="M58.2,53.4c0-0.6-0.1-1-0.2-1.3c-0.1-0.3-0.3-0.6-0.7-0.7c-0.3-0.2-0.8-0.3-1.4-0.3c-0.4,0-0.8,0-1.3,0.1
		c-0.5,0.1-0.9,0.2-1.3,0.4V50c0.4-0.2,0.9-0.3,1.4-0.4c0.5-0.1,1.1-0.2,1.6-0.2c1.4,0,2.4,0.3,3,0.9c0.6,0.6,0.9,1.5,0.9,2.8v6.7
		h-2.1V53.4z"/>
	<path class="st3" d="M62.8,56.2c0-1.3,0.5-2.1,1.5-2.4l-2.1-0.5v-2.1c0.6-0.5,1.3-0.9,2.1-1.3c0.8-0.3,1.8-0.5,2.8-0.5
		c1.6,0,2.7,0.3,3.5,1s1.2,1.7,1.2,3.1v6.4h-2.1v-6.4c0-0.9-0.2-1.5-0.6-1.8c-0.4-0.3-1.1-0.5-2.1-0.5c-0.6,0-1.2,0.1-1.8,0.3
		c-0.6,0.2-1,0.4-1.3,0.7v0.3l2.2,0.6v1.4c-0.5,0.1-0.8,0.3-1,0.6c-0.2,0.3-0.3,0.7-0.3,1.3v3.7h-2.1V56.2z"/>
	<path class="st3" d="M64.1,46.6h7.8v1.4H64L64.1,46.6z"/>
</g>
</svg>
