<?xml version="1.0" encoding="utf-8"?>
<!-- Generator: Adobe Illustrator 25.2.1, SVG Export Plug-In . SVG Version: 6.00 Build 0)  -->
<svg version="1.1" id="Layer_1" xmlns="http://www.w3.org/2000/svg" xmlns:xlink="http://www.w3.org/1999/xlink" x="0px" y="0px"
	 viewBox="0 0 110.8 118.2" style="enable-background:new 0 0 110.8 118.2;" xml:space="preserve">
<style type="text/css">
	.st0{fill:#970000;}
	.st1{display:none;enable-background:new    ;}
	.st2{display:inline;fill:#FFFFFF;}
	.st3{fill:#FFFFFF;}
</style>
<g id="Layer_2_1_">
	<g id="Layer_1-2">
		<rect class="st0" width="110.8" height="118.2"/>
		<g class="st1">
			<path class="st2" d="M22.9,64.5c-0.3-0.4-0.4-1-0.4-1.8v-6.4c0-0.8-0.2-1.4-0.5-1.8c-0.3-0.4-0.8-0.8-1.5-1v-1.6h5.6v1.6h-3
				c0.5,0.3,0.9,0.7,1.1,1.1s0.3,1.1,0.3,1.9v6.1c0,0.3,0.1,0.6,0.2,0.7c0.1,0.1,0.3,0.2,0.7,0.2h0.9v1.6h-1.8
				C23.7,65.1,23.2,64.9,22.9,64.5z"/>
			<path class="st2" d="M29.3,65.1c-0.7-0.1-1.3-0.3-1.9-0.6v-5.3h4.1l0.1,1.6h-2.2v2.5c0.6,0.2,1.3,0.3,2.1,0.3
				c0.8,0,1.4-0.1,1.8-0.4s0.8-0.6,1-1.1s0.3-1.2,0.3-2.1c0-0.9-0.1-1.7-0.3-2.2s-0.6-0.9-1.1-1.1c-0.5-0.2-1.2-0.3-2.2-0.3
				c-1.2,0-2.4,0.2-3.4,0.5v-1.6c0.5-0.2,1.1-0.3,1.8-0.4s1.4-0.2,2.1-0.2c1.8,0,3,0.4,3.9,1.3c0.8,0.9,1.2,2.2,1.2,4
				s-0.4,3.1-1.2,4s-2.1,1.3-3.8,1.3C30.8,65.3,30,65.2,29.3,65.1z"/>
			<path class="st2" d="M38.6,58.6c0-1.3,0.4-2.2,1.1-2.9c0.8-0.7,1.9-1,3.5-1s2.7,0.3,3.5,1s1.1,1.7,1.1,2.9v6.5h-2.1v-6.7
				c0-1.4-0.8-2.1-2.5-2.1c-0.9,0-1.5,0.2-1.9,0.5s-0.6,0.9-0.6,1.6v2.1c0.6-0.5,1.2-0.7,2-0.7h1.2l0.1,1.7h-1.4
				c-0.8,0-1.4,0.2-1.9,0.6v3h-2.1C38.6,65.1,38.6,58.6,38.6,58.6z"/>
			<path class="st2" d="M50,56.3h1.8v0.9h2.8l-0.1,1.5H50V56.3z M50,61.5h1.8v1h2.8L54.4,64H50V61.5z"/>
			<path class="st2" d="M57.3,64.5C56.5,64,56,63.2,56,62.1c0-0.5,0.1-1,0.4-1.4s0.6-0.7,1.1-0.9c-0.4-0.2-0.8-0.4-1-0.8
				c-0.2-0.4-0.4-0.8-0.4-1.4c0-0.9,0.3-1.7,0.9-2.2c0.6-0.5,1.4-0.8,2.3-0.8c0.6,0,1.2,0.1,1.7,0.2v1.6c-0.4-0.1-0.8-0.2-1.3-0.2
				c-1.1,0-1.6,0.4-1.6,1.3c0,0.9,0.6,1.3,1.8,1.3H61l0.1,1.5h-1.2c-1.2,0-1.8,0.5-1.8,1.6c0,0.5,0.2,0.9,0.6,1.2s1.1,0.4,2,0.4
				s1.6-0.2,2-0.5c0.4-0.4,0.7-0.9,0.7-1.6v-6.6h2.1v6.4c0,1.4-0.4,2.4-1.2,3.1c-0.8,0.7-1.9,1-3.5,1C59.3,65.3,58.2,65,57.3,64.5z"
				/>
			<path class="st2" d="M67.5,56.3h1.8v0.9H72l-0.1,1.5h-4.5L67.5,56.3L67.5,56.3z M67.5,61.5h1.8v1H72L71.9,64h-4.5L67.5,61.5
				L67.5,61.5z"/>
			<path class="st2" d="M77.6,65c-0.6-0.2-1.1-0.5-1.6-1l-0.1,1.1H74V54.8h2.1v7.6c0.4,0.4,0.8,0.7,1.3,0.9s1,0.3,1.6,0.3
				c0.7,0,1.3-0.2,1.6-0.5c0.3-0.3,0.5-0.9,0.5-1.7v-6.6h2.1v6.7c0,1.2-0.3,2.1-0.9,2.7s-1.5,1-2.6,1C78.8,65.3,78.2,65.2,77.6,65z"
				/>
			<path class="st2" d="M85.1,56.3h1.8v0.9h2.8l-0.1,1.5h-4.5C85.1,58.7,85.1,56.3,85.1,56.3z M85.1,61.5h1.8v1h2.8L89.6,64h-4.5
				V61.5z"/>
		</g>
	</g>
</g>
<g>
	<path class="st3" d="M22.2,64.3c-0.3-0.4-0.4-1-0.4-1.8v-6.4c0-0.8-0.2-1.4-0.5-1.8s-0.8-0.8-1.5-1v-1.6h5.6v1.6h-3
		c0.5,0.3,0.9,0.7,1.1,1.1c0.2,0.4,0.3,1.1,0.3,1.9v6.1c0,0.3,0.1,0.6,0.2,0.7c0.1,0.1,0.3,0.2,0.7,0.2h0.9v1.6h-1.8
		C23,64.9,22.5,64.7,22.2,64.3z"/>
	<path class="st3" d="M28.6,64.9c-0.7-0.1-1.3-0.3-1.9-0.6V59h4.1l0.1,1.6h-2.2v2.5c0.6,0.2,1.3,0.3,2.1,0.3c0.8,0,1.4-0.1,1.8-0.4
		s0.8-0.6,1-1.1c0.2-0.5,0.3-1.2,0.3-2.1c0-1-0.1-1.7-0.3-2.2c-0.2-0.5-0.6-0.9-1.1-1.1c-0.5-0.2-1.2-0.3-2.2-0.3
		c-1.2,0-2.4,0.2-3.4,0.5V55c0.5-0.2,1.1-0.3,1.8-0.4s1.4-0.2,2.1-0.2c1.8,0,3,0.4,3.9,1.3c0.8,0.9,1.2,2.2,1.2,4
		c0,1.8-0.4,3.1-1.2,4c-0.8,0.9-2.1,1.3-3.8,1.3C30.1,65.1,29.4,65,28.6,64.9z"/>
	<path class="st3" d="M37.9,58.4c0-1.3,0.4-2.2,1.1-2.9c0.8-0.7,1.9-1,3.5-1c1.6,0,2.7,0.3,3.5,1c0.8,0.7,1.1,1.7,1.1,2.9v6.5h-2.1
		v-6.7c0-1.4-0.8-2.1-2.5-2.1c-0.9,0-1.5,0.2-1.9,0.5C40.2,57,40,57.5,40,58.2v2.1c0.6-0.5,1.2-0.7,2-0.7h1.2l0.1,1.7H42
		c-0.8,0-1.4,0.2-1.9,0.6v3h-2.1V58.4z"/>
	<path class="st3" d="M53.5,58.4c0-0.6-0.1-1-0.2-1.3c-0.1-0.3-0.3-0.6-0.7-0.7c-0.3-0.2-0.8-0.3-1.4-0.3c-0.4,0-0.8,0-1.3,0.1
		c-0.5,0.1-0.9,0.2-1.3,0.4V55c0.4-0.2,0.9-0.3,1.4-0.4c0.5-0.1,1.1-0.2,1.6-0.2c1.4,0,2.4,0.3,3,0.9c0.6,0.6,0.9,1.5,0.9,2.8v6.7
		h-2.1V58.4z"/>
	<path class="st3" d="M58.8,64.3c-0.8-0.5-1.3-1.3-1.3-2.4c0-0.5,0.1-1,0.4-1.4s0.6-0.7,1.1-0.9c-0.4-0.2-0.8-0.4-1-0.8
		s-0.4-0.8-0.4-1.4c0-1,0.3-1.7,0.9-2.2c0.6-0.5,1.4-0.8,2.3-0.8c0.6,0,1.2,0.1,1.7,0.2v1.6c-0.4-0.1-0.8-0.2-1.3-0.2
		c-1.1,0-1.6,0.4-1.6,1.3c0,0.9,0.6,1.3,1.8,1.3h1.1l0.1,1.5h-1.2c-1.2,0-1.8,0.5-1.8,1.6c0,0.5,0.2,0.9,0.6,1.2
		c0.4,0.3,1.1,0.4,2,0.4c0.9,0,1.6-0.2,2-0.5c0.4-0.4,0.7-0.9,0.7-1.6v-6.6h2.1V61c0,1.4-0.4,2.4-1.2,3.1c-0.8,0.7-1.9,1-3.5,1
		C60.8,65.1,59.6,64.8,58.8,64.3z"/>
	<path class="st3" d="M73.2,58.4c0-0.6-0.1-1-0.2-1.3c-0.1-0.3-0.3-0.6-0.7-0.7c-0.3-0.2-0.8-0.3-1.4-0.3c-0.4,0-0.8,0-1.3,0.1
		c-0.5,0.1-0.9,0.2-1.3,0.4V55c0.4-0.2,0.9-0.3,1.4-0.4c0.5-0.1,1.1-0.2,1.6-0.2c1.4,0,2.4,0.3,3,0.9c0.6,0.6,0.9,1.5,0.9,2.8v6.7
		h-2.1V58.4z"/>
	<path class="st3" d="M81.2,64.8c-0.6-0.2-1.1-0.5-1.6-1l-0.1,1.1h-1.9V54.6h2.1v7.6c0.4,0.4,0.8,0.7,1.3,0.9c0.5,0.2,1,0.3,1.6,0.3
		c0.7,0,1.3-0.2,1.6-0.5c0.3-0.3,0.5-0.9,0.5-1.7v-6.6h2.1v6.7c0,1.2-0.3,2.1-0.9,2.7c-0.6,0.7-1.5,1-2.6,1
		C82.5,65.1,81.8,65,81.2,64.8z"/>
	<path class="st3" d="M84.6,49.9h2.1v3.1h-2.1V49.9z"/>
	<path class="st3" d="M93,58.4c0-0.6-0.1-1-0.2-1.3c-0.1-0.3-0.3-0.6-0.7-0.7c-0.3-0.2-0.8-0.3-1.4-0.3c-0.4,0-0.8,0-1.3,0.1
		c-0.5,0.1-0.9,0.2-1.3,0.4V55c0.4-0.2,0.9-0.3,1.4-0.4c0.5-0.1,1.1-0.2,1.6-0.2c1.4,0,2.4,0.3,3,0.9c0.6,0.6,0.9,1.5,0.9,2.8v6.7
		H93V58.4z"/>
</g>
</svg>
