<?xml version="1.0" encoding="utf-8"?>
<!-- Generator: Adobe Illustrator 25.2.1, SVG Export Plug-In . SVG Version: 6.00 Build 0)  -->
<svg version="1.1" id="Layer_1" xmlns="http://www.w3.org/2000/svg" xmlns:xlink="http://www.w3.org/1999/xlink" x="0px" y="0px"
	 viewBox="0 0 160.8 115.6" style="enable-background:new 0 0 160.8 115.6;" xml:space="preserve">
<style type="text/css">
	.st0{fill:#4CB19E;}
	.st1{display:none;enable-background:new    ;}
	.st2{display:inline;fill:#FFFFFF;}
	.st3{fill:#FFFFFF;}
</style>
<g id="Layer_2_1_">
	<g id="Layer_1-2">
		<path class="st0" d="M160.8,115.6V0h-57.6v19c0,6.8-5.5,12.3-12.3,12.4H0v84.3L160.8,115.6z"/>
		<g class="st1">
			<path class="st2" d="M59.2,78.5c-0.6-0.7-0.9-1.6-0.9-2.7V69h2.1v6.6c0,0.8,0.2,1.3,0.5,1.7c0.3,0.3,0.9,0.5,1.6,0.5
				c0.5,0,1.1-0.1,1.6-0.3c0.5-0.2,0.9-0.5,1.3-0.9V69h2.1v10.3h-1.9l-0.1-1.1c-1,0.9-2.2,1.3-3.6,1.3
				C60.7,79.5,59.8,79.2,59.2,78.5z"/>
			<path class="st2" d="M59.5,66h6.1v-1.6h1.7v3h-7.9L59.5,66z"/>
			<path class="st2" d="M71.9,79.3l-2.9-7h2l2.3,5.7c1.1,0.1,1.9-0.3,2.4-0.9c0.5-0.7,0.8-1.7,0.8-3.1c0-0.8-0.1-1.5-0.2-2
				c-0.2-0.5-0.4-0.8-0.8-1s-0.9-0.3-1.5-0.3h-0.7V69h1c1.5,0,2.5,0.4,3.2,1.2c0.7,0.8,1,2,1,3.6c0,1.9-0.4,3.4-1.3,4.3
				c-0.8,0.9-2,1.4-3.4,1.4C73,79.5,72.3,79.4,71.9,79.3z"/>
			<path class="st2" d="M80.1,70.6h1.8v0.9h2.8L84.6,73h-4.5V70.6z M80.1,75.7h1.8v1h2.8l-0.1,1.5h-4.5
				C80.1,78.2,80.1,75.7,80.1,75.7z"/>
			<path class="st2" d="M87.4,78.2c-0.8-0.9-1.1-2.1-1.1-3.9s0.3-3.1,0.9-4.1s1.4-1.4,2.5-1.4c0.5,0,0.9,0.1,1.2,0.2
				c0.3,0.2,0.6,0.4,0.8,0.7c0.3-0.3,0.6-0.5,1-0.7s0.9-0.3,1.3-0.3c0.8,0,1.4,0.2,1.8,0.7s0.6,1.2,0.6,2v7.7h-2.1v-7.4
				c0-0.5-0.1-0.9-0.2-1.1s-0.4-0.3-0.8-0.3c-0.3,0-0.5,0.1-0.7,0.2s-0.4,0.4-0.5,0.7H91c-0.2-0.3-0.3-0.5-0.5-0.7
				c-0.2-0.1-0.4-0.2-0.7-0.2c-0.6,0-1.1,0.3-1.3,1c-0.2,0.6-0.4,1.6-0.4,2.8c0,1.3,0.2,2.2,0.6,2.7s1.1,0.8,1.9,0.8
				c0.6,0,1-0.1,1.3-0.2V79c-0.4,0.2-1,0.2-1.7,0.2C89.2,79.5,88.1,79.1,87.4,78.2z"/>
			<path class="st2" d="M98.5,70.6h1.8v0.9h2.8L103,73h-4.5V70.6z M98.5,75.7h1.8v1h2.8l-0.1,1.5h-4.5
				C98.5,78.2,98.5,75.7,98.5,75.7z"/>
		</g>
	</g>
</g>
<g>
	<path class="st3" d="M58.9,78.3c-0.6-0.7-0.9-1.6-0.9-2.7v-6.7H60v6.6c0,0.8,0.2,1.3,0.5,1.7c0.3,0.3,0.9,0.5,1.6,0.5
		c0.5,0,1.1-0.1,1.6-0.3c0.5-0.2,0.9-0.5,1.3-0.9v-7.6H67v10.3h-1.9L65.1,78c-1,0.9-2.2,1.3-3.6,1.3C60.4,79.3,59.5,78.9,58.9,78.3z
		"/>
	<path class="st3" d="M59.2,65.8h6.1v-1.6H67v3h-7.9L59.2,65.8z"/>
	<path class="st3" d="M71.6,79l-2.9-7h2l2.3,5.7c1.1,0.1,1.9-0.3,2.4-0.9s0.8-1.7,0.8-3.1c0-0.8-0.1-1.5-0.2-2
		c-0.2-0.5-0.4-0.8-0.8-1s-0.9-0.3-1.5-0.3h-0.7v-1.6h1c1.5,0,2.5,0.4,3.2,1.2c0.7,0.8,1,2,1,3.6c0,1.9-0.4,3.4-1.3,4.3
		c-0.8,0.9-2,1.4-3.4,1.4C72.7,79.3,72,79.2,71.6,79z"/>
	<path class="st3" d="M84,72.6c0-0.6-0.1-1-0.2-1.3c-0.1-0.3-0.3-0.6-0.7-0.7c-0.3-0.2-0.8-0.3-1.4-0.3c-0.4,0-0.8,0-1.3,0.1
		c-0.5,0.1-0.9,0.2-1.3,0.4v-1.6c0.4-0.2,0.9-0.3,1.4-0.4c0.5-0.1,1.1-0.2,1.6-0.2c1.4,0,2.4,0.3,3,0.9s0.9,1.5,0.9,2.8v6.7H84V72.6
		z"/>
	<path class="st3" d="M89.2,78c-0.8-0.9-1.1-2.2-1.1-3.9c0-1.8,0.3-3.1,0.9-4.1c0.6-0.9,1.4-1.4,2.5-1.4c0.5,0,0.9,0.1,1.2,0.2
		c0.3,0.2,0.6,0.4,0.8,0.7c0.3-0.3,0.6-0.5,1-0.7s0.9-0.3,1.3-0.3c0.8,0,1.4,0.2,1.8,0.7s0.6,1.2,0.6,2v7.7h-2.1v-7.4
		c0-0.5-0.1-0.9-0.2-1.1c-0.1-0.2-0.4-0.3-0.8-0.3c-0.3,0-0.5,0.1-0.7,0.2c-0.2,0.1-0.4,0.4-0.5,0.7h-1.1c-0.2-0.3-0.3-0.5-0.5-0.7
		c-0.2-0.1-0.4-0.2-0.7-0.2c-0.6,0-1.1,0.3-1.3,1s-0.4,1.6-0.4,2.8c0,1.3,0.2,2.2,0.6,2.7c0.4,0.5,1.1,0.8,1.9,0.8
		c0.6,0,1-0.1,1.3-0.2V79c-0.4,0.2-1,0.2-1.7,0.2C91,79.3,90,78.8,89.2,78z"/>
	<path class="st3" d="M100.4,70.3h1.8v0.9h2.8l-0.1,1.5h-4.5V70.3z M100.4,75.5h1.8v0.9h2.8l-0.1,1.5h-4.5V75.5z"/>
</g>
</svg>
